time,[HUME],[TEMP],[PRES],[RADI],[RAPV],[DIRV],[PREC]
2020-03-04T00:00:00-05:00,76.19,13,737.04,-0.49,1.54,46.87,0
2020-03-04T00:01:00-05:00,75.75,13.14,736.77,1.56,2.28,44.16,0
2020-03-04T00:02:00-05:00,74.62,13.21,737.84,1.71,0.72,52.45,0
2020-03-04T00:03:00-05:00,73.63,13.3,736.64,2,1.35,51.57,0
2020-03-04T00:04:00-05:00,74.45,13.41,737.64,0.68,1.08,17.2,0
2020-03-04T00:05:00-05:00,75.6,13.41,738.51,0.68,0.72,88.21,0
2020-03-04T00:06:00-05:00,76.23,13.3,738.11,-0.64,0.58,168.09,0
2020-03-04T00:07:00-05:00,76.12,13.2,736.9,-0.79,0.27,62.09,0
2020-03-04T00:08:00-05:00,75.48,13.15,737.27,-0.2,0.99,61.77,0
2020-03-04T00:09:00-05:00,76.78,13.16,738.51,0.53,0.63,181.43,0
2020-03-04T00:10:00-05:00,75.46,13.13,736.87,-0.79,0.38,7.44,0
2020-03-04T00:11:00-05:00,76.58,13.1,737.27,-1.38,0.57,167.37,0
2020-03-04T00:12:00-05:00,76.07,13.09,737.41,-0.64,0.69,198.01,0
2020-03-04T00:13:00-05:00,76.3,13.07,736.33,-0.05,0.67,178.03,0
2020-03-04T00:14:00-05:00,76.2,13.04,736.74,-0.35,0.61,151.19,0
2020-03-04T00:15:00-05:00,76.8,13.03,736.5,-0.05,0.41,134.76,0
2020-03-04T00:16:00-05:00,77.17,12.98,737.81,-0.94,1.16,203.93,0
2020-03-04T00:17:00-05:00,77.82,12.94,736.23,-1.52,0.43,245.75,0
2020-03-04T00:18:00-05:00,78.97,12.88,737.04,-0.35,0.21,222.95,0
2020-03-04T00:19:00-05:00,79.77,12.84,737.07,-2.41,0.7,149.23,0
2020-03-04T00:20:00-05:00,80.37,12.75,736.77,-1.08,0.53,23.79,0
2020-03-04T00:21:00-05:00,80.26,12.7,738.01,-1.38,0.62,249.83,0
2020-03-04T00:22:00-05:00,80.7,12.67,738.01,-0.94,0.81,207.34,0
2020-03-04T00:23:00-05:00,81.44,12.65,736.7,-0.05,0.94,209.29,0
2020-03-04T00:24:00-05:00,81.35,12.64,737.74,-0.94,0.6,199.36,0
2020-03-04T00:25:00-05:00,81.85,12.65,737.81,-1.23,0.97,279.66,0
2020-03-04T00:26:00-05:00,82.13,12.63,737.94,-1.38,0.38,201.32,0
2020-03-04T00:27:00-05:00,83.12,12.61,737.67,0.39,1.32,32.28,0
2020-03-04T00:28:00-05:00,80.13,12.64,735.87,-1.08,0.86,337.9,0
2020-03-04T00:29:00-05:00,79.41,12.71,737.61,-0.94,0.6,180.09,0
2020-03-04T00:30:00-05:00,79.99,12.73,736.43,0.09,0.44,54.55,0
2020-03-04T00:31:00-05:00,81.15,12.71,737.44,-1.52,0.59,165.42,0
2020-03-04T00:32:00-05:00,80.96,12.65,737.04,-2.41,0.6,223.23,0
2020-03-04T00:33:00-05:00,80.81,12.61,735.73,-1.23,0.63,191.04,0
2020-03-04T00:34:00-05:00,82.66,12.57,738.01,-3.44,0.3,90.19,0
2020-03-04T00:35:00-05:00,83.09,12.51,737.61,-2.41,0.57,172.16,0
2020-03-04T00:36:00-05:00,83.42,12.43,736.74,-4.32,0.73,154.24,0
2020-03-04T00:37:00-05:00,84.35,12.38,736,-3.44,0.62,156.22,0
2020-03-04T00:38:00-05:00,84.77,12.39,738.08,-4.32,0.81,198.97,0
2020-03-04T00:39:00-05:00,84.65,12.42,737.17,-2.85,1.03,211.95,0
2020-03-04T00:40:00-05:00,84.49,12.37,736.57,-2.26,0.57,192,0
2020-03-04T00:41:00-05:00,84.98,12.27,736.8,-4.91,0.6,97.76,0
2020-03-04T00:42:00-05:00,85.53,12.19,736.6,-4.02,1.21,103.87,0
2020-03-04T00:43:00-05:00,85.48,12.17,736.1,-4.17,1.16,97.07,0
2020-03-04T00:44:00-05:00,85.79,12.16,736.94,-2.26,0.57,93.32,0
2020-03-04T00:45:00-05:00,85.59,12.16,737.44,-2.7,0.75,134.19,0
2020-03-04T00:46:00-05:00,85.58,12.17,736.17,-2.7,0.82,233.87,0
2020-03-04T00:47:00-05:00,85.39,12.15,737.17,-1.97,0.84,175.45,0
2020-03-04T00:48:00-05:00,85.99,12.09,735.5,-4.91,0.56,207.99,0
2020-03-04T00:49:00-05:00,87.1,12.03,737.27,-5.35,0.61,93.16,0
2020-03-04T00:50:00-05:00,86.78,12.01,737.1,-4.91,0.06,50.99,0
2020-03-04T00:51:00-05:00,87,11.99,735.93,-5.49,1.01,126.2,0
2020-03-04T00:52:00-05:00,85.76,11.97,737.2,-3.73,0.44,131.13,0
2020-03-04T00:53:00-05:00,83.98,11.99,736.57,-3.88,0.62,215.93,0
2020-03-04T00:54:00-05:00,81.91,12.11,737.51,-1.08,0.81,194.94,0
2020-03-04T00:55:00-05:00,80.91,12.22,735.67,-0.2,0.76,81.06,0
2020-03-04T00:56:00-05:00,80.41,12.32,737.27,-2.55,0.64,324.62,0
2020-03-04T00:57:00-05:00,80.78,12.35,736.9,-2.11,0.24,237.78,0
2020-03-04T00:58:00-05:00,80.09,12.34,736.07,-0.94,0.16,175.16,0
2020-03-04T00:59:00-05:00,79.11,12.41,736.27,-0.35,0.92,119.23,0
2020-03-04T01:00:00-05:00,78.98,12.49,736.77,-1.08,0.57,166.47,0
2020-03-04T01:01:00-05:00,78.88,12.49,737.27,-2.55,0.55,293.66,0
2020-03-04T01:02:00-05:00,78.9,12.51,736.87,-1.52,0.83,23.25,0
2020-03-04T01:03:00-05:00,78.45,12.52,737.41,-2.7,1.86,93.89,0
2020-03-04T01:04:00-05:00,77.13,12.63,736,-1.08,1.1,176.43,0
2020-03-04T01:05:00-05:00,76.78,12.69,737.27,-2.55,2.2,259.04,0
2020-03-04T01:06:00-05:00,77.18,12.69,736.5,-0.49,0.25,66.29,0
2020-03-04T01:07:00-05:00,76.95,12.72,737.24,-1.97,0.62,153.15,0
2020-03-04T01:08:00-05:00,77.33,12.73,736.13,-2.85,0.93,162.2,0
2020-03-04T01:09:00-05:00,77.94,12.72,737.2,-1.67,0.55,326.55,0
2020-03-04T01:10:00-05:00,78.78,12.67,735.87,-1.52,2.03,225.92,0
2020-03-04T01:11:00-05:00,78.7,12.62,736.37,-3.14,0.09,134.95,0
2020-03-04T01:12:00-05:00,79.99,12.59,737.44,-4.61,0.59,13.35,0
2020-03-04T01:13:00-05:00,80.46,12.51,737.2,-4.02,0.26,158.18,0
2020-03-04T01:14:00-05:00,81.04,12.45,736.27,-5.79,0.18,242.83,0
2020-03-04T01:15:00-05:00,81.59,12.41,736.5,-4.02,0.23,78.11,0
2020-03-04T01:16:00-05:00,82.08,12.34,737.31,-4.46,0.91,97.08,0
2020-03-04T01:17:00-05:00,82.44,12.33,735.87,-4.17,0.58,45.29,0
2020-03-04T01:18:00-05:00,82.73,12.27,737.51,-4.17,0.56,25.66,0
2020-03-04T01:19:00-05:00,82.95,12.25,736.94,-4.32,0.24,49.84,0
2020-03-04T01:20:00-05:00,82.98,12.25,736.13,-2.55,0.46,121.4,0
2020-03-04T01:21:00-05:00,82.96,12.25,736.43,-2.11,0.7,16.71,0
2020-03-04T01:22:00-05:00,82.05,12.24,737.31,-2.11,0.18,267.76,0
2020-03-04T01:23:00-05:00,81.56,12.25,736.2,-1.52,0.5,111.71,0
2020-03-04T01:24:00-05:00,81.49,12.26,737.47,-0.94,0.57,38.34,0
2020-03-04T01:25:00-05:00,80.86,12.3,736.94,-2.11,0.55,17.73,0
2020-03-04T01:26:00-05:00,80.66,12.29,736.57,-2.99,0.19,316.61,0
2020-03-04T01:27:00-05:00,80.44,12.31,737.31,-0.64,0.65,22.73,0
2020-03-04T01:28:00-05:00,81.8,12.3,736.27,-3.44,0.9,62.6,0
2020-03-04T01:29:00-05:00,82.86,12.23,736.07,-3.88,0.86,56.1,0
2020-03-04T01:30:00-05:00,83.1,12.11,736.23,-3.88,1.52,69.31,0
2020-03-04T01:31:00-05:00,84.06,12.04,736,-3.44,0.69,74.43,0
2020-03-04T01:32:00-05:00,84.79,12,736.13,-2.41,0.23,89.97,0
2020-03-04T01:33:00-05:00,84.66,11.99,736.94,-4.17,0.58,6.12,0
2020-03-04T01:34:00-05:00,85.41,11.98,737.37,-3.58,1.16,42.31,0
2020-03-04T01:35:00-05:00,85.77,11.96,737.04,-2.11,0.68,44.08,0
2020-03-04T01:36:00-05:00,85.84,11.95,737.41,-4.46,0.72,57.11,0
2020-03-04T01:37:00-05:00,85.59,11.93,737.51,-3.44,0.57,52.17,0
2020-03-04T01:38:00-05:00,86.03,11.92,735.87,-2.99,0.65,82.49,0
2020-03-04T01:39:00-05:00,86.2,11.87,737.77,-4.61,0.97,73.79,0
2020-03-04T01:40:00-05:00,86.92,11.84,736.5,-2.99,0.55,37.62,0
2020-03-04T01:41:00-05:00,87.35,11.82,735.97,-2.55,0.81,32.1,0
2020-03-04T01:42:00-05:00,87.67,11.81,737.34,-2.55,0.97,28.79,0
2020-03-04T01:43:00-05:00,87.95,11.85,736.2,-6.96,0.88,72.28,0
2020-03-04T01:44:00-05:00,87.1,11.82,737.27,-3.58,0.57,34.94,0
2020-03-04T01:45:00-05:00,86.88,11.81,737.41,-2.26,0.65,87.54,0
2020-03-04T01:46:00-05:00,86.46,11.77,736.1,-4.46,1.92,58.39,0
2020-03-04T01:47:00-05:00,85.04,11.75,737.44,-3.29,2.66,75.6,0
2020-03-04T01:48:00-05:00,85.05,11.75,736.4,-3.58,2.23,78.34,0
2020-03-04T01:49:00-05:00,84.49,11.74,737.14,-2.26,0.72,87.68,0
2020-03-04T01:50:00-05:00,84.44,11.73,735.97,-2.7,1.85,73.54,0
2020-03-04T01:51:00-05:00,84.8,11.74,736.7,-4.02,0.57,88.85,0
2020-03-04T01:52:00-05:00,84.78,11.72,736.13,-3.44,0.69,47.37,0
2020-03-04T01:53:00-05:00,85.16,11.72,736.2,-2.26,1.15,53.99,0
2020-03-04T01:54:00-05:00,83.98,11.73,736.5,-0.94,1.58,48.98,0
2020-03-04T01:55:00-05:00,82.43,11.85,735.83,-0.2,1.59,36.74,0
2020-03-04T01:56:00-05:00,79.77,12.03,736.5,-0.05,0.82,0.85,0
2020-03-04T01:57:00-05:00,80.23,12.13,736.57,-0.05,0.93,131.02,0
2020-03-04T01:58:00-05:00,79.91,12.13,736.13,-0.79,0.53,346.5,0
2020-03-04T01:59:00-05:00,80.07,12.12,737.14,-2.41,0.77,287.96,0
2020-03-04T02:00:00-05:00,80.17,12.09,737.14,-0.64,0.89,183.1,0
2020-03-04T02:01:00-05:00,81.22,12.03,736.64,-3.29,0.73,71.09,0
2020-03-04T02:02:00-05:00,80.86,11.99,736.97,-1.97,0.57,30.3,0
2020-03-04T02:03:00-05:00,81.07,11.99,735.63,-2.85,0.58,185.34,0
2020-03-04T02:04:00-05:00,80.69,11.97,737,-2.7,0.58,139.27,0
2020-03-04T02:05:00-05:00,80.74,11.99,737,-3.14,1.73,64.23,0
2020-03-04T02:06:00-05:00,80.98,11.97,736.33,-2.55,1.05,44.7,0
2020-03-04T02:07:00-05:00,80.11,11.94,735.97,-0.94,0.58,125.16,0
2020-03-04T02:08:00-05:00,81.22,11.93,736.54,-0.79,0.81,181.08,0
2020-03-04T02:09:00-05:00,80.82,11.87,737.04,-1.97,0.41,92.12,0
2020-03-04T02:10:00-05:00,80.75,11.87,736.67,-3.14,0.61,95.18,0
2020-03-04T02:11:00-05:00,80.48,11.87,735.63,-3.29,0.53,194.94,0
2020-03-04T02:12:00-05:00,80.76,11.84,736.87,-4.76,0.54,200.25,0
2020-03-04T02:13:00-05:00,80.74,11.81,736.84,-2.26,0.59,270.95,0
2020-03-04T02:14:00-05:00,81.23,11.77,735.43,-4.02,0.24,41.47,0
2020-03-04T02:15:00-05:00,81.56,11.73,736.54,-5.2,0.62,267.76,0
2020-03-04T02:16:00-05:00,82.05,11.69,736.17,-5.05,0.36,269.05,0
2020-03-04T02:17:00-05:00,82.07,11.65,735.7,-5.05,0.62,338.51,0
2020-03-04T02:18:00-05:00,82.21,11.62,736.1,-4.46,0.48,79.08,0
2020-03-04T02:19:00-05:00,83.01,11.61,736.3,-3.88,0.12,89.92,0
2020-03-04T02:20:00-05:00,83.67,11.62,736.9,-3.73,0.53,342.85,0
2020-03-04T02:21:00-05:00,84.44,11.64,735.7,-1.38,0.59,34.93,0
2020-03-04T02:22:00-05:00,83.83,11.67,736.2,-3.58,2.67,18.55,0
2020-03-04T02:23:00-05:00,84.32,11.77,736.43,-0.94,0.18,266.77,0
2020-03-04T02:24:00-05:00,84.1,11.79,736.77,-1.52,0.24,217.91,0
2020-03-04T02:25:00-05:00,83.8,11.79,736.74,-1.97,0.88,44.49,0
2020-03-04T02:26:00-05:00,83.24,11.77,736.27,-3.44,0.62,68.45,0
2020-03-04T02:27:00-05:00,83.12,11.77,736.94,-3.58,0.66,61.43,0
2020-03-04T02:28:00-05:00,83.06,11.73,737.04,-1.82,0.75,57.38,0
2020-03-04T02:29:00-05:00,83.38,11.7,735.83,-4.61,0.13,185.01,0
2020-03-04T02:30:00-05:00,83.56,11.65,737.14,-4.02,0.56,153.18,0
2020-03-04T02:31:00-05:00,83.41,11.58,736.74,-3.14,0.55,145.28,0
2020-03-04T02:32:00-05:00,83.26,11.56,735.6,-3.29,0.58,113.01,0
2020-03-04T02:33:00-05:00,83.37,11.54,736,-3.44,0.44,65.24,0
2020-03-04T02:34:00-05:00,83.37,11.51,735.67,-4.76,0.62,91.41,0
2020-03-04T02:35:00-05:00,83.69,11.48,735.8,-3.29,0.58,100.52,0
2020-03-04T02:36:00-05:00,83.96,11.44,737.27,-4.02,0.3,77.56,0
2020-03-04T02:37:00-05:00,83.95,11.4,736.27,-4.46,0.77,126.26,0
2020-03-04T02:38:00-05:00,83.72,11.39,736.1,-2.55,0.66,126.68,0
2020-03-04T02:39:00-05:00,83.82,11.37,735.83,-4.17,0.61,120.62,0
2020-03-04T02:40:00-05:00,83.84,11.34,735.73,-5.2,0.73,122.42,0
2020-03-04T02:41:00-05:00,84.03,11.28,737.24,-4.32,0.73,119.39,0
2020-03-04T02:42:00-05:00,84.19,11.24,735.93,-3.29,0.86,119.56,0
2020-03-04T02:43:00-05:00,83.92,11.2,735.9,-1.97,0.67,122.91,0
2020-03-04T02:44:00-05:00,84.06,11.17,735.8,-2.7,0.57,135.49,0
2020-03-04T02:45:00-05:00,84.22,11.16,735.93,-2.11,0.56,124.63,0
2020-03-04T02:46:00-05:00,84.02,11.16,736.94,-3.29,0.59,140.56,0
2020-03-04T02:47:00-05:00,84.08,11.15,736.6,-3.73,0.6,158.46,0
2020-03-04T02:48:00-05:00,84.19,11.15,736.87,-1.97,0.71,153.12,0
2020-03-04T02:49:00-05:00,84.44,11.17,735.8,-3.58,0.64,126.65,0
2020-03-04T02:50:00-05:00,84.59,11.16,735.9,-2.85,0.89,142.84,0
2020-03-04T02:51:00-05:00,84.66,11.13,735.87,-2.55,0.59,143.19,0
2020-03-04T02:52:00-05:00,84.85,11.12,735.73,-2.11,0.59,126.15,0
2020-03-04T02:53:00-05:00,84.98,11.09,737.1,-3.88,0.69,128.61,0
2020-03-04T02:54:00-05:00,85.15,11.07,737.04,-1.38,0.63,131.06,0
2020-03-04T02:55:00-05:00,85.43,11.06,737.27,-3.58,0.6,129.26,0
2020-03-04T02:56:00-05:00,85.39,11.06,736.23,-0.94,0.69,118.73,0
2020-03-04T02:57:00-05:00,85.23,11.06,736.7,-3.14,0.84,107.2,0
2020-03-04T02:58:00-05:00,84.99,11.1,737.07,-2.7,0.65,133.24,0
2020-03-04T02:59:00-05:00,84.63,11.14,737.37,-1.97,0.57,119.17,0
2020-03-04T03:00:00-05:00,84.59,11.19,736.97,-1.52,0.59,131.16,0
2020-03-04T03:01:00-05:00,84.68,11.25,736.8,-1.97,0.58,133.35,0
2020-03-04T03:02:00-05:00,84.54,11.28,736.07,-1.67,0.68,129.58,0
2020-03-04T03:03:00-05:00,84.86,11.29,735.9,-2.41,0.59,140.27,0
2020-03-04T03:04:00-05:00,85.34,11.3,735.73,-3.58,0.6,147.24,0
2020-03-04T03:05:00-05:00,85.75,11.31,737.14,-3.58,0.6,145.28,0
2020-03-04T03:06:00-05:00,85.8,11.3,737.07,-2.85,0.64,133.22,0
2020-03-04T03:07:00-05:00,85.85,11.31,736.6,-3.44,0.55,130.67,0
2020-03-04T03:08:00-05:00,85.83,11.25,736.1,-1.38,0.6,119.27,0
2020-03-04T03:09:00-05:00,86.12,11.24,735.83,-3.29,0.88,109.17,0
2020-03-04T03:10:00-05:00,85.94,11.2,737.47,-1.82,0.58,119.26,0
2020-03-04T03:11:00-05:00,86.49,11.21,736.74,-0.49,0.63,110.26,0
2020-03-04T03:12:00-05:00,86.76,11.21,735.9,-2.85,0.73,101.11,0
2020-03-04T03:13:00-05:00,87.45,11.22,735.83,-1.38,0.68,113.04,0
2020-03-04T03:14:00-05:00,87.03,11.26,737.07,-2.11,0.63,119.37,0
2020-03-04T03:15:00-05:00,87.87,11.29,735.7,-1.08,0.81,94.9,0
2020-03-04T03:16:00-05:00,87.89,11.32,735.33,-2.85,0.57,93.43,0
2020-03-04T03:17:00-05:00,87.87,11.32,735.77,-1.97,0.68,117.52,0
2020-03-04T03:18:00-05:00,87.55,11.28,736.77,-2.7,0.61,105.42,0
2020-03-04T03:19:00-05:00,87.61,11.26,735.83,-2.99,0.6,103.76,0
2020-03-04T03:20:00-05:00,87.99,11.25,736.1,-3.44,0.67,94.11,0
2020-03-04T03:21:00-05:00,88.47,11.24,736.74,-1.82,0.66,87.12,0
2020-03-04T03:22:00-05:00,88.84,11.24,736.74,-3.44,0.39,75.97,0
2020-03-04T03:23:00-05:00,88.96,11.21,736.27,-1.08,0.58,104.28,0
2020-03-04T03:24:00-05:00,89.17,11.22,737,-0.79,0.35,88.13,0
2020-03-04T03:25:00-05:00,89.66,11.23,736.5,-2.26,0.38,117,0
2020-03-04T03:26:00-05:00,89.11,11.22,736.8,-2.11,0.25,103.66,0
2020-03-04T03:27:00-05:00,88.91,11.21,736.54,-2.41,0.59,120.57,0
2020-03-04T03:28:00-05:00,88.39,11.18,737.14,-3.14,0.57,132.21,0
2020-03-04T03:29:00-05:00,88.23,11.16,735.8,-3.58,0.56,118.18,0
2020-03-04T03:30:00-05:00,88.5,11.14,736.9,-3.14,0.58,123.6,0
2020-03-04T03:31:00-05:00,88.88,11.15,736.07,-2.11,0.55,132.04,0
2020-03-04T03:32:00-05:00,89.32,11.18,736.7,-1.52,0.48,168.44,0
2020-03-04T03:33:00-05:00,88.92,11.18,737.04,-2.41,0.67,129.28,0
2020-03-04T03:34:00-05:00,88.51,11.18,735.43,-1.67,0.75,95.03,0
2020-03-04T03:35:00-05:00,88.14,11.15,735.87,-2.55,0.39,122.25,0
2020-03-04T03:36:00-05:00,87.97,11.15,735.73,-4.02,0.53,135.75,0
2020-03-04T03:37:00-05:00,88.15,11.14,735.67,-1.82,0.59,151.16,0
2020-03-04T03:38:00-05:00,88.39,11.16,735.5,-3.29,0.36,103.75,0
2020-03-04T03:39:00-05:00,88.09,11.14,737.31,-2.85,0.62,81.01,0
2020-03-04T03:40:00-05:00,88.11,11.12,736.47,-1.97,0.64,103.39,0
2020-03-04T03:41:00-05:00,88.19,11.14,735.6,-1.23,0.56,103.27,0
2020-03-04T03:42:00-05:00,88.1,11.16,737.44,-3.44,0.64,86.03,0
2020-03-04T03:43:00-05:00,87.88,11.18,735.83,-3.14,0.64,87.28,0
2020-03-04T03:44:00-05:00,86.86,11.22,737.17,-2.55,0.67,66.79,0
2020-03-04T03:45:00-05:00,86.38,11.21,735.93,-2.55,0.72,72.69,0
2020-03-04T03:46:00-05:00,86.88,11.26,736.3,-1.97,0.57,62.77,0
2020-03-04T03:47:00-05:00,86.72,11.24,735.87,-0.79,0.6,91.19,0
2020-03-04T03:48:00-05:00,86.16,11.28,737.1,-2.41,0.69,100.22,0
2020-03-04T03:49:00-05:00,85.85,11.3,736.4,-2.55,0.69,120.82,0
2020-03-04T03:50:00-05:00,86.1,11.33,737.17,-1.52,0.64,79.76,0
2020-03-04T03:51:00-05:00,86.1,11.32,737.44,-1.23,0.67,71.35,0
2020-03-04T03:52:00-05:00,86.39,11.29,737.14,-2.41,0.83,61.92,0
2020-03-04T03:53:00-05:00,87.46,11.26,736.9,-3.44,0.8,68.54,0
2020-03-04T03:54:00-05:00,87.99,11.28,736.74,-1.67,0.61,68.34,0
2020-03-04T03:55:00-05:00,88.11,11.26,736.4,-1.23,0.65,53.34,0
2020-03-04T03:56:00-05:00,88.33,11.24,736.77,-2.85,0.74,51.38,0
2020-03-04T03:57:00-05:00,88.73,11.2,735.77,-0.94,1.16,68.85,0
2020-03-04T03:58:00-05:00,89.28,11.18,735.93,-1.82,0.76,47.07,0
2020-03-04T03:59:00-05:00,89.67,11.18,736.9,-0.2,1.93,66.95,0
2020-03-04T04:00:00-05:00,90.05,11.2,736.27,-1.82,1.05,27.81,0
2020-03-04T04:01:00-05:00,90.54,11.26,737.04,-0.64,2.4,70.74,0
2020-03-04T04:02:00-05:00,90.56,11.31,737.14,0.39,1.52,78.82,0
2020-03-04T04:03:00-05:00,90.16,11.39,737.07,-0.2,2.43,66.89,0
2020-03-04T04:04:00-05:00,89.85,11.45,735.9,-2.11,0.57,36.31,0
2020-03-04T04:05:00-05:00,89.47,11.47,736.74,0.39,0.27,335.57,0
2020-03-04T04:06:00-05:00,89.45,11.48,737.04,-1.82,0.5,9.72,0
2020-03-04T04:07:00-05:00,89.18,11.47,736.54,-3.14,0.39,334.62,0
2020-03-04T04:08:00-05:00,89.21,11.48,736.07,-3.88,0.25,219.25,0
2020-03-04T04:09:00-05:00,89.43,11.46,736.54,-1.67,0.24,152.15,0
2020-03-04T04:10:00-05:00,89.29,11.44,736.87,-4.02,0.42,112.62,0
2020-03-04T04:11:00-05:00,89.36,11.43,736.97,-2.55,0.12,265.81,0
2020-03-04T04:12:00-05:00,89.54,11.41,736.27,-1.82,0.24,238.16,0
2020-03-04T04:13:00-05:00,89.53,11.41,737.91,-4.32,0.08,58.42,0
2020-03-04T04:14:00-05:00,89.6,11.39,735.97,-3.29,0.63,120.67,0
2020-03-04T04:15:00-05:00,89.19,11.36,736.03,-1.97,0.62,121.33,0
2020-03-04T04:16:00-05:00,88.95,11.34,735.6,-3.29,0.65,133.48,0
2020-03-04T04:17:00-05:00,88.77,11.34,737.54,-1.52,0.74,113.8,0
2020-03-04T04:18:00-05:00,88.34,11.3,737.44,-3.73,0.73,99.09,0
2020-03-04T04:19:00-05:00,88.49,11.28,737.34,-1.23,0.59,102.57,0
2020-03-04T04:20:00-05:00,88.67,11.26,736,-1.38,0.57,108.44,0
2020-03-04T04:21:00-05:00,88.58,11.25,736.87,-3.58,0.48,40.29,0
2020-03-04T04:22:00-05:00,88.58,11.24,735.9,-1.97,0.19,52.47,0
2020-03-04T04:23:00-05:00,88.67,11.21,736.43,-4.17,0.3,73.91,0
2020-03-04T04:24:00-05:00,88.65,11.2,737.34,-5.49,0.72,82.87,0
2020-03-04T04:25:00-05:00,89.18,11.2,736.77,-2.41,0.75,96.46,0
2020-03-04T04:26:00-05:00,90.17,11.28,736.4,-2.99,0.2,117.19,0
2020-03-04T04:27:00-05:00,89.98,11.34,737,-2.26,1.33,52.42,0
2020-03-04T04:28:00-05:00,89.39,11.31,737.44,-1.97,0.66,49.57,0
2020-03-04T04:29:00-05:00,89.02,11.27,736.2,-2.41,0.87,68.09,0
2020-03-04T04:30:00-05:00,89,11.24,737.74,-3.58,0.57,65.28,0
2020-03-04T04:31:00-05:00,88.95,11.22,736.64,-1.82,0.66,105.47,0
2020-03-04T04:32:00-05:00,89.01,11.19,736.54,-2.11,0.58,98.98,0
2020-03-04T04:33:00-05:00,88.96,11.19,736.27,-3.29,0.82,69.76,0
2020-03-04T04:34:00-05:00,88.58,11.16,737.2,-3.58,0.64,105.3,0
2020-03-04T04:35:00-05:00,88.32,11.11,735.63,-4.17,0.59,100.54,0
2020-03-04T04:36:00-05:00,88.82,11.11,736.8,-4.02,0.58,107.02,0
2020-03-04T04:37:00-05:00,89.26,11.08,737.27,-4.91,0.67,109.39,0
2020-03-04T04:38:00-05:00,89.12,11.06,736.64,-4.02,0.55,107.17,0
2020-03-04T04:39:00-05:00,89.26,11.04,737.31,-4.91,0.53,101.09,0
2020-03-04T04:40:00-05:00,89.49,11.03,736.1,-3.14,0.61,100.99,0
2020-03-04T04:41:00-05:00,89.42,11.02,736,-2.7,0.65,97.41,0
2020-03-04T04:42:00-05:00,89.34,10.99,737,-2.99,0.57,121.29,0
2020-03-04T04:43:00-05:00,89.98,10.97,737.31,-3.14,0.6,151.15,0
2020-03-04T04:44:00-05:00,90.38,10.97,736.3,-2.41,0.53,164.16,0
2020-03-04T04:45:00-05:00,90.17,10.96,736.13,-4.02,0.53,171.17,0
2020-03-04T04:46:00-05:00,90.39,10.95,737.57,-4.02,0.51,159.48,0
2020-03-04T04:47:00-05:00,90.58,10.93,737.71,-5.05,0.37,178.05,0
2020-03-04T04:48:00-05:00,90.56,10.92,737.47,-2.99,0.31,132.71,0
2020-03-04T04:49:00-05:00,90.73,10.92,736.47,-5.05,0.53,101.52,0
2020-03-04T04:50:00-05:00,90.73,10.92,736.23,-5.35,0.61,87.13,0
2020-03-04T04:51:00-05:00,90.77,10.91,736.33,-2.99,0.68,59.3,0
2020-03-04T04:52:00-05:00,90.43,10.9,736.54,-4.17,1.26,94.55,0
2020-03-04T04:53:00-05:00,90.48,10.9,737.41,-4.17,0.74,70.55,0
2020-03-04T04:54:00-05:00,90.26,10.86,736.17,-5.49,0.95,57.87,0
2020-03-04T04:55:00-05:00,90.37,10.84,736.67,-2.55,0.06,338.55,0
2020-03-04T04:56:00-05:00,90.47,10.82,735.87,-2.85,0.68,84.01,0
2020-03-04T04:57:00-05:00,90.67,10.82,737.61,-3.73,0.78,89.69,0
2020-03-04T04:58:00-05:00,90.83,10.79,737.37,-3.73,0.6,97.76,0
2020-03-04T04:59:00-05:00,90.91,10.78,737.34,-3.29,0.57,115.56,0
2020-03-04T05:00:00-05:00,90.89,10.75,737.24,-2.99,0.73,119.29,0
2020-03-04T05:01:00-05:00,90.43,10.72,736.5,-3.14,0.6,121.87,0
2020-03-04T05:02:00-05:00,90.45,10.66,737.07,-3.73,0.77,115.23,0
2020-03-04T05:03:00-05:00,90.75,10.65,737.07,-3.88,0.66,127.47,0
2020-03-04T05:04:00-05:00,91.14,10.66,737.17,-4.61,0.73,129.68,0
2020-03-04T05:05:00-05:00,91.29,10.67,736.43,-4.02,0.63,142.01,0
2020-03-04T05:06:00-05:00,91.5,10.66,737.07,-4.61,0.56,130.26,0
2020-03-04T05:07:00-05:00,91.49,10.67,736.1,-4.61,0.65,146.63,0
2020-03-04T05:08:00-05:00,91.54,10.66,737.51,-5.2,0.58,127.06,0
2020-03-04T05:09:00-05:00,91.41,10.65,737.51,-4.76,0.6,134.49,0
2020-03-04T05:10:00-05:00,91.39,10.64,736.6,-2.41,0.58,93.73,0
2020-03-04T05:11:00-05:00,91.36,10.63,736.77,-4.91,0.62,94.67,0
2020-03-04T05:12:00-05:00,91.22,10.6,736.4,-4.46,0.67,108.71,0
2020-03-04T05:13:00-05:00,91.02,10.58,736.4,-5.2,0.69,123.67,0
2020-03-04T05:14:00-05:00,91.04,10.56,736.27,-4.76,0.63,118.1,0
2020-03-04T05:15:00-05:00,90.89,10.56,736.2,-2.55,0.78,106.36,0
2020-03-04T05:16:00-05:00,90.49,10.56,736.7,-4.02,0.87,60.4,0
2020-03-04T05:17:00-05:00,90.12,10.57,737.74,-4.46,0.75,80.91,0
2020-03-04T05:18:00-05:00,89.72,10.62,736.67,-5.2,0.58,82.96,0
2020-03-04T05:19:00-05:00,89.18,10.6,737.41,-3.88,0.61,94.6,0
2020-03-04T05:20:00-05:00,88.83,10.62,737.64,-4.46,0.5,117.41,0
2020-03-04T05:21:00-05:00,88.8,10.62,736.74,-3.29,0.65,120.24,0
2020-03-04T05:22:00-05:00,88.76,10.65,736.37,-3.44,0.57,134.21,0
2020-03-04T05:23:00-05:00,88.79,10.64,736.2,-3.29,0.51,128.51,0
2020-03-04T05:24:00-05:00,88.76,10.67,736.33,-3.88,0.57,127.56,0
2020-03-04T05:25:00-05:00,88.9,10.69,736.6,-4.91,0.65,128.31,0
2020-03-04T05:26:00-05:00,88.7,10.72,737.2,-5.2,0.61,136.47,0
2020-03-04T05:27:00-05:00,88.48,10.73,737.47,-5.05,0.63,111.86,0
2020-03-04T05:28:00-05:00,88.21,10.76,736.57,-2.7,0.63,67.42,0
2020-03-04T05:29:00-05:00,87.79,10.75,735.87,-3.73,0.22,112.34,0
2020-03-04T05:30:00-05:00,87.7,10.74,736.57,-5.49,0.28,177.41,0
2020-03-04T05:31:00-05:00,87.69,10.72,737.27,-4.17,0.56,147.25,0
2020-03-04T05:32:00-05:00,87.91,10.72,737.47,-5.05,0.83,141.42,0
2020-03-04T05:33:00-05:00,88.11,10.72,737.07,-2.99,0.45,145.29,0
2020-03-04T05:34:00-05:00,88.07,10.7,737,-5.64,0.77,135.17,0
2020-03-04T05:35:00-05:00,88.4,10.67,737.74,-3.29,1.09,100.94,0
2020-03-04T05:36:00-05:00,88.41,10.68,736.4,-4.61,0.83,77.15,0
2020-03-04T05:37:00-05:00,88.63,10.64,737.71,-3.73,0.58,65.69,0
2020-03-04T05:38:00-05:00,88.39,10.64,737.77,-2.99,0.56,167.12,0
2020-03-04T05:39:00-05:00,88.39,10.68,737.47,-2.99,0.29,73.02,0
2020-03-04T05:40:00-05:00,87.95,10.68,736.87,-3.88,0.92,93.42,0
2020-03-04T05:41:00-05:00,87.97,10.68,736.77,-2.85,0.7,74.99,0
2020-03-04T05:42:00-05:00,87.71,10.65,736.64,-4.61,1.01,210.93,0
2020-03-04T05:43:00-05:00,87.45,10.62,737,-5.2,0.56,216.26,0
2020-03-04T05:44:00-05:00,87.49,10.58,736.84,-5.49,0.87,286.65,0
2020-03-04T05:45:00-05:00,85.76,10.59,736.9,-2.85,0.54,45.92,0
2020-03-04T05:46:00-05:00,85.65,10.64,736.37,-4.61,1.05,58.87,0
2020-03-04T05:47:00-05:00,84.63,10.72,737.81,-4.17,1.12,58.28,0
2020-03-04T05:48:00-05:00,83.4,10.8,737.81,-3.29,2.55,224.9,0
2020-03-04T05:49:00-05:00,82.23,10.96,736.77,-1.38,0.69,234.18,0
2020-03-04T05:50:00-05:00,81.3,11.1,736.94,-4.02,1.94,357.43,0
2020-03-04T05:51:00-05:00,79.95,11.33,737.57,-0.05,1.5,36.18,0
2020-03-04T05:52:00-05:00,79.18,11.5,736.6,-1.82,0.44,203.9,0
2020-03-04T05:53:00-05:00,79.17,11.55,738.08,-0.64,1.4,87.49,0
2020-03-04T05:54:00-05:00,78.79,11.54,737.67,-1.52,2.94,63.87,0
2020-03-04T05:55:00-05:00,77.72,11.69,737.71,0.53,1.23,45.26,0
2020-03-04T05:56:00-05:00,77.61,11.81,736.9,-0.79,1.07,138.27,0
2020-03-04T05:57:00-05:00,78.31,11.74,737,0.98,1.14,157.2,0
2020-03-04T05:58:00-05:00,77.6,11.73,736.17,0.09,1.78,122.26,0
2020-03-04T05:59:00-05:00,77.12,11.85,737.74,2.15,1.78,54.65,0
2020-03-04T06:00:00-05:00,76.53,11.93,737.41,3.18,0.66,130.95,0
2020-03-04T06:01:00-05:00,76.79,11.95,736.37,1.71,3.02,54.14,0
2020-03-04T06:02:00-05:00,76.52,12.03,736.77,2.3,3.48,57.83,0
2020-03-04T06:03:00-05:00,76.32,12.05,738.01,2.74,1.66,71.06,0
2020-03-04T06:04:00-05:00,76.26,12.09,737.64,1.56,0.55,303.98,0
2020-03-04T06:05:00-05:00,75.72,12.1,736.77,2.59,2.54,60.05,0
2020-03-04T06:06:00-05:00,76.17,12.09,737.87,2,0.59,232.2,0
2020-03-04T06:07:00-05:00,76.27,12.05,738.38,2,1.35,68.42,0
2020-03-04T06:08:00-05:00,76.56,12.03,738.28,3.92,3.15,70.03,0
2020-03-04T06:09:00-05:00,75.76,12.05,736.54,5.09,0.75,353.78,0
2020-03-04T06:10:00-05:00,76.61,12.03,737.97,4.36,2.28,283.99,0
2020-03-04T06:11:00-05:00,76.94,11.95,737.91,3.03,1.4,47.37,0
2020-03-04T06:12:00-05:00,76.85,11.91,736.8,5.83,2.62,61.14,0
2020-03-04T06:13:00-05:00,75.7,11.99,737.77,5.97,0.53,312.6,0
2020-03-04T06:14:00-05:00,75.06,12.04,737.07,6.42,0.68,299.69,0
2020-03-04T06:15:00-05:00,75.06,12.05,736.67,7.15,0.99,73.21,0
2020-03-04T06:16:00-05:00,75.28,12.03,736.77,9.36,1.03,94.6,0
2020-03-04T06:17:00-05:00,75.8,12.01,736.94,10.24,0.76,49.27,0
2020-03-04T06:18:00-05:00,75.78,11.96,737.37,10.24,1.14,354.48,0
2020-03-04T06:19:00-05:00,74.65,11.98,736.84,10.38,0.95,44.46,0
2020-03-04T06:20:00-05:00,74.66,12,737.61,12,2.95,65.57,0
2020-03-04T06:21:00-05:00,74.13,12.03,737.91,13.77,1.19,13.28,0
2020-03-04T06:22:00-05:00,73.75,12.09,736.64,14.94,1.22,113.53,0
2020-03-04T06:23:00-05:00,73.74,12.13,737.81,16.41,0.36,295.94,0
2020-03-04T06:24:00-05:00,75.32,12.05,737.34,14.65,1.41,64.54,0
2020-03-04T06:25:00-05:00,74.69,11.99,737.74,17,0.58,301.98,0
2020-03-04T06:26:00-05:00,74.06,12.01,736.37,16.85,0.68,332.51,0
2020-03-04T06:27:00-05:00,74.31,12.02,737.44,18.77,0.62,227.24,0
2020-03-04T06:28:00-05:00,74.62,12,736.74,17.44,0.6,3.71,0
2020-03-04T06:29:00-05:00,74.92,11.96,737.81,18.77,1.04,273.78,0
2020-03-04T06:30:00-05:00,74.59,11.95,737.84,20.09,0.24,191.01,0
2020-03-04T06:31:00-05:00,74.67,11.98,737,22,2.59,85.42,0
2020-03-04T06:32:00-05:00,74.21,12.05,737.54,21.71,1.55,52.59,0
2020-03-04T06:33:00-05:00,74.28,12.09,737.31,24.2,2.06,167.14,0
2020-03-04T06:34:00-05:00,74.5,12.07,738.11,23.03,2.77,48.77,0
2020-03-04T06:35:00-05:00,73.52,12.12,736.64,26.41,2.29,142.24,0
2020-03-04T06:36:00-05:00,74.17,12.13,738.28,26.85,0.57,216.91,0
2020-03-04T06:37:00-05:00,75.14,12.05,737.41,24.94,1.46,273.79,0
2020-03-04T06:38:00-05:00,75.36,11.96,737.94,26.7,0.89,17.72,0
2020-03-04T06:39:00-05:00,75.24,11.95,736.84,27.15,3.33,50.54,0
2020-03-04T06:40:00-05:00,75.51,11.95,738.01,28.76,1.33,1.15,0
2020-03-04T06:41:00-05:00,75.26,11.95,737.04,29.35,0.59,217.92,0
2020-03-04T06:42:00-05:00,75.66,11.94,738.38,27,1.25,282.11,0
2020-03-04T06:43:00-05:00,75.58,11.95,737.97,28.47,2.16,30.72,0
2020-03-04T06:44:00-05:00,75.55,11.95,737.84,31.26,2.54,59.19,0
2020-03-04T06:45:00-05:00,74.95,11.98,738.01,30.38,3.75,44.72,0
2020-03-04T06:46:00-05:00,74.33,12.09,736.64,31.41,2.85,119.33,0
2020-03-04T06:47:00-05:00,74.94,12.12,737.94,34.5,0.22,329.55,0
2020-03-04T06:48:00-05:00,74.95,12.08,737.04,31.41,1.38,190.05,0
2020-03-04T06:49:00-05:00,74.02,12.15,737.94,32.73,1.64,28.04,0
2020-03-04T06:50:00-05:00,73.98,12.19,736.8,33.32,0.56,25.16,0
2020-03-04T06:51:00-05:00,73.73,12.21,737.1,34.5,0.87,293.69,0
2020-03-04T06:52:00-05:00,74.34,12.21,736.94,34.79,0.99,324.59,0
2020-03-04T06:53:00-05:00,74.41,12.19,738.04,32.59,0.6,308.65,0
2020-03-04T06:54:00-05:00,75.4,12.1,737.41,33.91,2.92,45.2,0
2020-03-04T06:55:00-05:00,74.7,12.09,738.08,34.5,9.02,48.95,0
2020-03-04T06:56:00-05:00,73.45,12.29,737.84,38.17,3.02,23.07,0
2020-03-04T06:57:00-05:00,72.82,12.35,736.67,37,0.48,162.55,0
2020-03-04T06:58:00-05:00,73,12.38,737.91,36.26,1.05,53.67,0
2020-03-04T06:59:00-05:00,73.56,12.35,738.48,37.29,0.61,87.25,0
2020-03-04T07:00:00-05:00,73.32,12.35,737,37,2.62,255.69,0
2020-03-04T07:01:00-05:00,73.4,12.36,736.74,38.47,2.55,13.62,0
2020-03-04T07:02:00-05:00,73.37,12.36,737.97,39.64,0.41,183.03,0
2020-03-04T07:03:00-05:00,73.97,12.34,737.54,40.82,2.69,85.31,0
2020-03-04T07:04:00-05:00,74.37,12.29,736.8,41.55,3.74,44.79,0
2020-03-04T07:05:00-05:00,74.59,12.29,738.58,42.73,2.43,63.41,0
2020-03-04T07:06:00-05:00,74.53,12.29,737.71,45.67,2.22,295.63,0
2020-03-04T07:07:00-05:00,74.2,12.27,737.34,45.38,2.69,7.2,0
2020-03-04T07:08:00-05:00,75.03,12.28,737.41,45.82,0.81,163.17,0
2020-03-04T07:09:00-05:00,75.47,12.16,737.2,45.38,0.68,73,0
2020-03-04T07:10:00-05:00,74.57,12.23,738.24,47.14,2.28,21.46,0
2020-03-04T07:11:00-05:00,73.87,12.29,738.54,47.58,2.76,77.29,0
2020-03-04T07:12:00-05:00,74.14,12.31,737.07,49.35,1.1,57.13,0
2020-03-04T07:13:00-05:00,74.49,12.34,738.71,50.96,2,25.52,0
2020-03-04T07:14:00-05:00,74.76,12.34,737,49.49,2.34,116.84,0
2020-03-04T07:15:00-05:00,74.91,12.35,737.34,49.79,2.19,161.14,0
2020-03-04T07:16:00-05:00,74.62,12.37,737.84,51.99,3.09,1.09,0
2020-03-04T07:17:00-05:00,74.38,12.42,737.67,55.08,2.23,51.76,0
2020-03-04T07:18:00-05:00,73.21,12.45,737.34,55.37,5.14,36.35,0
2020-03-04T07:19:00-05:00,73.07,12.53,737.17,56.99,2,38.56,0
2020-03-04T07:20:00-05:00,73.2,12.55,737.31,56.99,6.15,59.36,0
2020-03-04T07:21:00-05:00,73.1,12.57,737,56.11,3.14,25.72,0
2020-03-04T07:22:00-05:00,73.76,12.58,738.54,58.9,3.75,42.06,0
2020-03-04T07:23:00-05:00,73.54,12.59,738.38,61.55,3.96,40.41,0
2020-03-04T07:24:00-05:00,73.28,12.62,737.17,71.99,7.02,71.23,0
2020-03-04T07:25:00-05:00,73.06,12.67,737.1,84.93,0.92,93.04,0
2020-03-04T07:26:00-05:00,72.8,12.73,738.41,153.88,3.88,52.2,0
2020-03-04T07:27:00-05:00,73.12,12.77,737,154.47,0.6,103.25,0
2020-03-04T07:28:00-05:00,72.09,12.83,736.97,97.86,0.59,92.6,0
2020-03-04T07:29:00-05:00,72.23,12.89,738.31,69.78,1.95,21.43,0
2020-03-04T07:30:00-05:00,71.7,12.91,738.01,138.74,3.45,348.48,0
2020-03-04T07:31:00-05:00,71.81,13.04,738.38,260.62,1.91,345.51,0
2020-03-04T07:32:00-05:00,71.26,13.17,737.17,298.7,0.88,16.25,0
2020-03-04T07:33:00-05:00,70.18,13.28,738.28,301.34,0.65,5.56,0
2020-03-04T07:34:00-05:00,69.77,13.36,737.31,302.08,0.69,329.54,0
2020-03-04T07:35:00-05:00,67.96,13.44,737.27,296.2,0.65,314.89,0
2020-03-04T07:36:00-05:00,68.27,13.58,737.31,315.61,3.42,34.19,0
2020-03-04T07:37:00-05:00,67.83,13.72,738.34,322.37,1.98,325.95,0
2020-03-04T07:38:00-05:00,68.37,13.74,738.31,321.19,2.53,41.65,0
2020-03-04T07:39:00-05:00,67.36,13.83,738.41,322.07,0.97,324.97,0
2020-03-04T07:40:00-05:00,68.47,13.88,736.77,331.04,2.86,346.5,0
2020-03-04T07:41:00-05:00,68.79,13.99,736.87,342.36,2.43,36.69,0
2020-03-04T07:42:00-05:00,68.61,14.03,737.41,353.98,5.08,63.22,0
2020-03-04T07:43:00-05:00,68.2,14.02,737.31,355.3,3.62,55.89,0
2020-03-04T07:44:00-05:00,67.84,13.98,738.71,355.01,0.8,152.15,0
2020-03-04T07:45:00-05:00,67.2,14.06,737,358.54,1.39,57.87,0
2020-03-04T07:46:00-05:00,68.04,14.13,737.57,356.63,2.46,10,0
2020-03-04T07:47:00-05:00,67.67,14.18,738.01,357.8,3.63,56.44,0
2020-03-04T07:48:00-05:00,67.02,14.2,737.17,366.77,2.7,47.23,0
2020-03-04T07:49:00-05:00,68.17,14.24,737.17,365.74,0.6,279.65,0
2020-03-04T07:50:00-05:00,67.46,14.34,737.24,367.36,0.55,308.06,0
2020-03-04T07:51:00-05:00,68.04,14.37,738.54,374.12,1.18,66.83,0
2020-03-04T07:52:00-05:00,67.61,14.43,737.1,392.5,4.3,51.86,0
2020-03-04T07:53:00-05:00,66.41,14.39,737.2,402.2,0.98,74.19,0
2020-03-04T07:54:00-05:00,66.73,14.41,738.28,409.41,1.02,223.28,0
2020-03-04T07:55:00-05:00,66.05,14.43,737.87,383.24,3.74,278.67,0
2020-03-04T07:56:00-05:00,66.57,14.43,737.51,430.73,1.38,280.01,0
2020-03-04T07:57:00-05:00,66.49,14.45,737.07,447.19,2.56,73.84,0
2020-03-04T07:58:00-05:00,66.16,14.41,738.08,451.46,2.78,185.35,0
2020-03-04T07:59:00-05:00,67.36,14.41,737.2,453.07,1.8,11.31,0
2020-03-04T08:00:00-05:00,65.86,14.49,738.41,453.51,2.27,15.52,0
2020-03-04T08:01:00-05:00,65.49,14.49,737.37,452.93,4.32,20.45,0
2020-03-04T08:02:00-05:00,65.66,14.49,738.54,464.69,6.46,311.61,0
2020-03-04T08:03:00-05:00,65.75,14.47,738.44,469.39,0.86,69.08,0
2020-03-04T08:04:00-05:00,66.33,14.51,737.74,478.8,2.99,10,0
2020-03-04T08:05:00-05:00,66.51,14.47,738.68,469.98,2.61,34.54,0
2020-03-04T08:06:00-05:00,66.36,14.45,738.71,473.21,5.02,78.72,0
2020-03-04T08:07:00-05:00,67.06,14.43,738.41,483.21,0.9,32.16,0
2020-03-04T08:08:00-05:00,66.07,14.44,737.51,489.09,2.71,352.48,0
2020-03-04T08:09:00-05:00,67.23,14.52,737.37,487.18,1.36,130.73,0
2020-03-04T08:10:00-05:00,68.38,14.6,737.47,495.27,0.6,91.64,0
2020-03-04T08:11:00-05:00,66.15,14.69,738.08,502.47,1.75,354.82,0
2020-03-04T08:12:00-05:00,65.19,14.69,737.47,507.03,0.19,194.91,0
2020-03-04T08:13:00-05:00,65.99,14.73,738.85,505.12,1.97,210.29,0
2020-03-04T08:14:00-05:00,65.65,14.79,737.74,511.88,0.22,6.93,0
2020-03-04T08:15:00-05:00,64.5,14.83,738.48,516.44,1.34,301.02,0
2020-03-04T08:16:00-05:00,65.09,14.92,737.61,518.64,1.92,295.64,0
2020-03-04T08:17:00-05:00,64.92,14.97,738.34,529.97,0.63,348.72,0
2020-03-04T08:18:00-05:00,65.09,15.15,737.34,531,0.57,135.56,0
2020-03-04T08:19:00-05:00,66.44,15.25,737.44,539.96,1.98,202.94,0
2020-03-04T08:20:00-05:00,63.63,15.2,737.37,541.73,0.85,65.66,0
2020-03-04T08:21:00-05:00,64,15.28,738.81,547.76,2.17,25.88,0
2020-03-04T08:22:00-05:00,63.73,15.36,737.17,549.96,3.91,350.51,0
2020-03-04T08:23:00-05:00,64.9,15.4,737.37,553.34,1.25,6.73,0
2020-03-04T08:24:00-05:00,63.6,15.45,738.58,557.02,0.21,216.22,0
2020-03-04T08:25:00-05:00,65.1,15.61,737.61,561.28,2.56,38.04,0
2020-03-04T08:26:00-05:00,62.28,15.52,738.61,561.87,2.54,23.48,0
2020-03-04T08:27:00-05:00,62.29,15.55,738.51,564.81,0.7,212.86,0
2020-03-04T08:28:00-05:00,61.86,15.52,738.31,573.78,0.73,276.09,0
2020-03-04T08:29:00-05:00,62.13,15.57,738.18,558.78,3.42,37.06,0
2020-03-04T08:30:00-05:00,61.95,15.52,737.27,382.21,2.51,7.81,0
2020-03-04T08:31:00-05:00,62.54,15.46,738.68,115.51,0.75,357.41,0
2020-03-04T08:32:00-05:00,62.7,15.43,737.71,96.98,0.65,184.35,0
2020-03-04T08:33:00-05:00,63.57,15.35,738.78,94.78,0.65,174.09,0
2020-03-04T08:34:00-05:00,62.97,15.22,738.85,109.48,2.83,49.31,0
2020-03-04T08:35:00-05:00,62.22,15.07,738.38,355.15,0.22,323.49,0
2020-03-04T08:36:00-05:00,62.75,15.01,738.71,578.63,0.94,4.65,0
2020-03-04T08:37:00-05:00,64.11,14.99,738.98,615.83,2.37,28.17,0
2020-03-04T08:38:00-05:00,64.7,14.99,737.77,616.42,2.11,72.84,0
2020-03-04T08:39:00-05:00,63.49,15.02,737.54,552.31,3.41,26.05,0
2020-03-04T08:40:00-05:00,63.54,14.99,738.74,222.1,2.29,44.81,0
2020-03-04T08:41:00-05:00,62.72,14.94,737.84,178.29,4.34,31.79,0
2020-03-04T08:42:00-05:00,61.72,14.85,737.54,128.15,2.24,225.85,0
2020-03-04T08:43:00-05:00,62.87,14.75,739.38,113.6,0.96,203.9,0
2020-03-04T08:44:00-05:00,64.08,14.64,739.31,145.5,0.9,114.18,0
2020-03-04T08:45:00-05:00,64.23,14.62,739.21,136.97,2.24,48.49,0
2020-03-04T08:46:00-05:00,64,14.57,739.45,98.3,2.69,98.98,0
2020-03-04T08:47:00-05:00,63.47,14.49,738.98,89.78,1.63,38.65,0
2020-03-04T08:48:00-05:00,64.58,14.45,738.95,111.39,1.2,5.53,0
2020-03-04T08:49:00-05:00,63.96,14.41,739.05,133.59,0.59,90.3,0
2020-03-04T08:50:00-05:00,63.8,14.39,739.51,137.71,0.35,69.99,0
2020-03-04T08:51:00-05:00,64.26,14.37,738.18,118.89,1.44,356.81,0
2020-03-04T08:52:00-05:00,65.3,14.32,738.08,132.27,0.57,123.21,0
2020-03-04T08:53:00-05:00,65.63,14.29,738.04,513.65,2.3,46.77,0
2020-03-04T08:54:00-05:00,65.6,14.24,738.11,624.8,1.76,347.49,0
2020-03-04T08:55:00-05:00,65.51,14.25,738.48,711.54,4.29,35.11,0
2020-03-04T08:56:00-05:00,66.58,14.3,738.24,710.36,3.16,21.75,0
2020-03-04T08:57:00-05:00,67.06,14.46,737.91,579.51,0.91,21.21,0
2020-03-04T08:58:00-05:00,65.53,14.53,738.28,745.8,1.02,209.93,0
2020-03-04T08:59:00-05:00,66.39,14.65,738.01,761.53,1.31,338.49,0
2020-03-04T09:00:00-05:00,66.41,14.79,738.88,275.62,2.43,69.55,0
2020-03-04T09:01:00-05:00,64.88,14.79,739.35,221.07,2.45,31.28,0
2020-03-04T09:02:00-05:00,64.84,14.78,739.01,335.31,2.36,356.45,0
2020-03-04T09:03:00-05:00,65.74,14.81,738.28,814.31,3.85,24.53,0
2020-03-04T09:04:00-05:00,65.43,14.83,737.91,799.31,3.27,27.45,0
2020-03-04T09:05:00-05:00,65.99,14.97,738.54,760.35,1.95,48.02,0
2020-03-04T09:06:00-05:00,64.41,15.05,738.51,651.11,3.78,10.3,0
2020-03-04T09:07:00-05:00,64.94,15.07,739.62,448.51,1.94,73.72,0
2020-03-04T09:08:00-05:00,65.43,15.19,738.14,805.34,0.73,83.51,0
2020-03-04T09:09:00-05:00,65.07,15.29,739.01,811.07,2.23,276.7,0
2020-03-04T09:10:00-05:00,64.96,15.38,738.48,666.4,0.6,111.78,0
2020-03-04T09:11:00-05:00,66.82,15.57,737.77,814.31,0.82,23.37,0
2020-03-04T09:12:00-05:00,64.76,15.78,739.28,807.25,0.93,66.59,0
2020-03-04T09:13:00-05:00,62.92,15.88,737.94,802.84,1.8,47.35,0
2020-03-04T09:14:00-05:00,63.41,15.88,739.05,802.55,1.23,77.5,0
2020-03-04T09:15:00-05:00,60.75,15.87,738.14,831.95,2.51,69.35,0
2020-03-04T09:16:00-05:00,59.42,15.76,738.18,830.48,3.77,40.9,0
2020-03-04T09:17:00-05:00,61.32,15.63,739.45,243.71,2.17,356.48,0
2020-03-04T09:18:00-05:00,61.59,15.65,739.25,845.18,2.53,14.32,0
2020-03-04T09:19:00-05:00,62.79,15.78,738.88,824.6,1.25,56.81,0
2020-03-04T09:20:00-05:00,62.15,15.92,737.61,836.66,3.45,37.32,0
2020-03-04T09:21:00-05:00,59.26,15.94,739.01,874.59,2.19,49.62,0
2020-03-04T09:22:00-05:00,59.91,15.93,739.01,255.91,2.03,58.65,0
2020-03-04T09:23:00-05:00,59.47,15.89,738.28,226.22,3.01,33.99,0
2020-03-04T09:24:00-05:00,60.04,15.82,738.28,228.42,1.42,335.58,0
2020-03-04T09:25:00-05:00,59.8,15.78,738.38,222.83,0.59,20.76,0
2020-03-04T09:26:00-05:00,59.38,15.72,739.01,222.69,2.51,37.61,0
2020-03-04T09:27:00-05:00,58.19,15.61,739.41,220.48,1.04,78.04,0
2020-03-04T09:28:00-05:00,60.38,15.59,739.21,222.1,0.95,23.33,0
2020-03-04T09:29:00-05:00,60.83,15.57,739.05,232.68,2.41,86.72,0
2020-03-04T09:30:00-05:00,61.22,15.53,739.21,254.59,1.75,72.06,0
2020-03-04T09:31:00-05:00,58.39,15.42,739.62,278.56,3.61,60.16,0
2020-03-04T09:32:00-05:00,59.3,15.33,739.75,980.89,1.93,50.36,0
2020-03-04T09:33:00-05:00,60.83,15.43,738.44,305.02,1.32,59.47,0
2020-03-04T09:34:00-05:00,61.05,15.49,738.58,457.34,0.72,343.53,0
2020-03-04T09:35:00-05:00,60.26,15.52,739.48,192.99,2.61,19.87,0
2020-03-04T09:36:00-05:00,60.83,15.51,739.31,174.32,1.32,31.18,0
2020-03-04T09:37:00-05:00,58.58,15.45,738.31,400.88,0.26,270.73,0
2020-03-04T09:38:00-05:00,59.66,15.43,738.31,174.46,1.84,299.71,0
2020-03-04T09:39:00-05:00,60.76,15.39,739.45,177.84,4.12,36.29,0
2020-03-04T09:40:00-05:00,60.59,15.31,739.21,184.9,1.72,13.16,0
2020-03-04T09:41:00-05:00,61.71,15.18,739.55,206.22,1.27,49.19,0
2020-03-04T09:42:00-05:00,61.86,15.14,738.48,315.75,2.7,43.21,0
2020-03-04T09:43:00-05:00,61.94,15.06,739.55,278.85,2.7,18.25,0
2020-03-04T09:44:00-05:00,62.22,15,739.38,246.06,1.17,40.31,0
2020-03-04T09:45:00-05:00,62.87,14.97,738.41,234.6,2.71,66,0
2020-03-04T09:46:00-05:00,63.39,14.94,739.85,245.03,0.99,343.9,0
2020-03-04T09:47:00-05:00,63.47,14.96,738.61,263.12,0.79,344.52,0
2020-03-04T09:48:00-05:00,62.97,14.96,738.31,272.67,3.04,4.06,0
2020-03-04T09:49:00-05:00,63,14.97,739.38,315.16,1.44,58.16,0
2020-03-04T09:50:00-05:00,63.25,14.97,739.58,421.76,2.49,44.11,0
2020-03-04T09:51:00-05:00,61.4,15.01,738.31,382.94,3.53,353.49,0
2020-03-04T09:52:00-05:00,61.72,15.01,738.71,280.47,1.03,6.38,0
2020-03-04T09:53:00-05:00,64.09,15.05,738.54,253.27,0.68,3.7,0
2020-03-04T09:54:00-05:00,63.46,15.09,739.48,277.67,0.63,318.57,0
2020-03-04T09:55:00-05:00,64.7,15.19,738.95,363.09,0.33,117.83,0
2020-03-04T09:56:00-05:00,63.45,15.29,739.15,266.21,1.14,35.35,0
2020-03-04T09:57:00-05:00,63.23,15.28,738.38,258.71,0.69,71.25,0
2020-03-04T09:58:00-05:00,62.42,15.34,738.28,262.68,0.72,353.51,0
2020-03-04T09:59:00-05:00,61.82,15.36,738.21,316.05,1.89,49.33,0
2020-03-04T10:00:00-05:00,65,15.43,738.08,358.83,0.35,290.7,0
2020-03-04T10:01:00-05:00,64.88,15.59,739.75,376.91,0.26,348.77,0
2020-03-04T10:02:00-05:00,63.32,15.71,738.41,254,1.45,29.91,0
2020-03-04T10:03:00-05:00,62.72,15.67,739.25,270.47,1.42,41.73,0
2020-03-04T10:04:00-05:00,62.15,15.61,739.55,292.38,2.29,83.27,0
2020-03-04T10:05:00-05:00,62.53,15.51,739.31,420.58,0.77,40.43,0
2020-03-04T10:06:00-05:00,63.19,15.55,739.51,358.24,1.09,48.72,0
2020-03-04T10:07:00-05:00,62.45,15.65,739.75,324.72,2.62,3.06,0
2020-03-04T10:08:00-05:00,61.26,15.61,737.84,311.49,0.56,27.44,0
2020-03-04T10:09:00-05:00,62.96,15.65,738.08,303.55,0.67,83.8,0
2020-03-04T10:10:00-05:00,62.25,15.73,739.28,297.96,1.56,349.41,0
2020-03-04T10:11:00-05:00,61.94,15.76,738.48,314.58,0.71,323.5,0
2020-03-04T10:12:00-05:00,62.69,15.85,738.81,296.64,0.8,49.18,0
2020-03-04T10:13:00-05:00,64.53,15.94,739.21,303.99,0.22,198,0
2020-03-04T10:14:00-05:00,63.29,16.02,739.11,326.34,0.6,4.06,0
2020-03-04T10:15:00-05:00,63.01,16.08,738.31,313.55,0.89,15.34,0
2020-03-04T10:16:00-05:00,60.07,16.04,738.14,297.52,1.74,19.68,0
2020-03-04T10:17:00-05:00,61.91,16,738.64,285.91,0.58,354.48,0
2020-03-04T10:18:00-05:00,62.52,16.08,738.81,279.14,2.93,86.72,0
2020-03-04T10:19:00-05:00,60.26,16.04,738.48,275.62,2.21,33.14,0
2020-03-04T10:20:00-05:00,59.14,15.95,739.15,270.91,1.88,38.26,0
2020-03-04T10:21:00-05:00,58.99,15.89,739.65,267.23,2.68,355.48,0
2020-03-04T10:22:00-05:00,59.92,15.86,739.45,267.53,2.59,35.59,0
2020-03-04T10:23:00-05:00,60.67,15.85,738.11,270.18,2.72,348.44,0
2020-03-04T10:24:00-05:00,60.69,15.77,739.58,277.97,1.52,12.36,0
2020-03-04T10:25:00-05:00,61.83,15.77,738.41,305.61,2.49,29.77,0
2020-03-04T10:26:00-05:00,61.83,15.78,738.88,335.31,2.19,9.71,0
2020-03-04T10:27:00-05:00,61.86,15.7,739.65,370.74,3.35,33.83,0
2020-03-04T10:28:00-05:00,62.36,15.66,739.72,1260.53,1.47,63.23,0
2020-03-04T10:29:00-05:00,63.33,15.81,738.54,1304.78,1.87,43.86,0
2020-03-04T10:30:00-05:00,63.71,15.96,739.21,440.28,3.12,20.47,0
2020-03-04T10:31:00-05:00,60.83,15.94,739.28,401.47,2.43,48.61,0
2020-03-04T10:32:00-05:00,60.9,15.91,738.11,1073.51,0.81,5.93,0
2020-03-04T10:33:00-05:00,62.22,15.99,738.18,1268.91,1.79,48.56,0
2020-03-04T10:34:00-05:00,61.26,16.11,738.34,1236.12,0.96,93,0
2020-03-04T10:35:00-05:00,60.83,16.22,737.84,1187.16,2.26,40.99,0
2020-03-04T10:36:00-05:00,60.96,16.29,738.98,879.59,2.77,27.76,0
2020-03-04T10:37:00-05:00,59.71,16.24,737.84,306.2,2.69,35.29,0
2020-03-04T10:38:00-05:00,59.93,16.19,739.21,967.65,0.69,290.71,0
2020-03-04T10:39:00-05:00,63.08,16.32,737.57,352.66,3.77,8.56,0
2020-03-04T10:40:00-05:00,60.49,16.39,739.35,286.2,1.56,39.95,0
2020-03-04T10:41:00-05:00,59.54,16.42,738.95,342.95,1.66,16.1,0
2020-03-04T10:42:00-05:00,60.03,16.41,739.01,570.84,0.63,339.47,0
2020-03-04T10:43:00-05:00,58.98,16.44,738.04,744.91,1.24,10.77,0
2020-03-04T10:44:00-05:00,59.46,16.46,737.87,298.85,2.72,355.49,0
2020-03-04T10:45:00-05:00,57.85,16.46,738.64,273.56,1.99,357.78,0
2020-03-04T10:46:00-05:00,56.76,16.38,737.94,336.92,1.23,15.21,0
2020-03-04T10:47:00-05:00,58.29,16.37,738.24,797.11,2.32,353.54,0
2020-03-04T10:48:00-05:00,58.48,16.42,739.15,366.92,1.79,34.69,0
2020-03-04T10:49:00-05:00,58.3,16.35,739.18,315.46,1.58,40.18,0
2020-03-04T10:50:00-05:00,59.16,16.3,737.74,368.83,2.83,298.68,0
2020-03-04T10:51:00-05:00,59.93,16.32,737.71,1210.68,0.64,264.8,0
2020-03-04T10:52:00-05:00,63.01,16.46,737.91,1173.49,0.53,201.91,0
2020-03-04T10:53:00-05:00,60.61,16.68,739.31,577.45,0.6,43.27,0
2020-03-04T10:54:00-05:00,61.2,16.88,738.28,280.76,0.37,15.95,0
2020-03-04T10:55:00-05:00,58.78,17.02,737.74,293.11,1.93,354.47,0
2020-03-04T10:56:00-05:00,56.92,16.97,739.11,349.72,2.55,37.28,0
2020-03-04T10:57:00-05:00,55.94,16.84,738.38,848.57,2.31,57.02,0
2020-03-04T10:58:00-05:00,56.19,16.86,739.05,633.47,0.74,327.89,0
2020-03-04T10:59:00-05:00,55.63,16.99,739.28,651.7,0.58,309.64,0
2020-03-04T11:00:00-05:00,56.55,17.14,739.15,1139.23,0.56,354.83,0
2020-03-04T11:01:00-05:00,55.73,17.35,738.85,1125.71,2.25,52.13,0
2020-03-04T11:02:00-05:00,56.42,17.5,737.57,1117.91,0.65,260.13,0
2020-03-04T11:03:00-05:00,53.92,17.71,737.37,1117.32,0.54,302.64,0
2020-03-04T11:04:00-05:00,54.54,17.95,738.68,1122.91,1.86,312.87,0
2020-03-04T11:05:00-05:00,52.96,18.13,738.14,1132.91,1.22,34.4,0
2020-03-04T11:06:00-05:00,53.27,18.3,737.41,1158.05,1.11,116.42,0
2020-03-04T11:07:00-05:00,52.99,18.39,738.48,1174.66,2.38,339.51,0
2020-03-04T11:08:00-05:00,53.25,18.49,738.61,1187.6,2.62,39.51,0
2020-03-04T11:09:00-05:00,51,18.52,737.47,1194.95,0.68,332.47,0
2020-03-04T11:10:00-05:00,51.73,18.49,737.2,1248.18,2.79,25.72,0
2020-03-04T11:11:00-05:00,51,18.27,737.34,1163.34,0.33,205,0
2020-03-04T11:12:00-05:00,52.09,18.31,737.64,622.3,1.46,53.77,0
2020-03-04T11:13:00-05:00,52.29,18.35,737.14,447.49,1.72,29.46,0
2020-03-04T11:14:00-05:00,52.86,18.42,737.31,1207.89,2.61,65.98,0
2020-03-04T11:15:00-05:00,52.5,18.4,738.31,1218.33,0.94,113.01,0
2020-03-04T11:16:00-05:00,53.53,18.54,738.21,1235.53,2.42,41.76,0
2020-03-04T11:17:00-05:00,54.49,18.74,737.07,367.8,0.59,38.03,0
2020-03-04T11:18:00-05:00,52.3,18.93,737.71,441.9,0.39,44.8,0
2020-03-04T11:19:00-05:00,48.39,18.91,737.2,248.27,0.6,37.87,0
2020-03-04T11:20:00-05:00,49.75,18.88,737.34,1068.66,0.95,49.31,0
2020-03-04T11:21:00-05:00,49.54,18.93,737.41,1203.19,2.32,109.29,0
2020-03-04T11:22:00-05:00,48.25,18.83,738.34,1176.87,1.92,187.25,0
2020-03-04T11:23:00-05:00,50.09,18.72,737.67,1154.23,0.78,232.16,0
2020-03-04T11:24:00-05:00,53.23,18.78,737.37,1143.2,0.97,254.71,0
2020-03-04T11:25:00-05:00,54.73,18.94,737.14,1151.88,0.67,246.69,0
2020-03-04T11:26:00-05:00,52.15,19.08,738.21,1155.4,1.09,238.85,0
2020-03-04T11:27:00-05:00,54.49,19.2,737.87,1165.11,1.26,9.3,0
2020-03-04T11:28:00-05:00,48.18,19.26,736.6,1164.52,1.6,325.58,0
2020-03-04T11:29:00-05:00,48.82,19.19,737.74,1162.61,2.15,61.19,0
2020-03-04T11:30:00-05:00,48.07,19.31,737.04,1172.46,1.85,328.54,0
2020-03-04T11:31:00-05:00,46.83,19.19,738.28,980.74,2.38,334.56,0
2020-03-04T11:32:00-05:00,47.47,19.16,736.87,1172.31,1.69,310.96,0
2020-03-04T11:33:00-05:00,48.88,19.25,738.11,1188.34,0.64,356.43,0
2020-03-04T11:34:00-05:00,52.4,19.48,737.44,1164.96,2.13,346.78,0
2020-03-04T11:35:00-05:00,46.42,19.52,737,292.82,2.84,0.8,0
2020-03-04T11:36:00-05:00,46.74,19.4,737.67,488.8,1.14,24.22,0
2020-03-04T11:37:00-05:00,47.64,19.32,738.01,891.35,0.8,357.43,0
2020-03-04T11:38:00-05:00,49.53,19.26,737.14,746.68,2.99,42.6,0
2020-03-04T11:39:00-05:00,49.11,19.18,736.57,993.82,2.69,39.94,0
2020-03-04T11:40:00-05:00,48.16,19.1,737,1168.49,4.72,42.62,0
2020-03-04T11:41:00-05:00,47.95,19.04,737.04,576.72,0.42,56.99,0
2020-03-04T11:42:00-05:00,45.62,19.09,737,1157.76,2.71,50.36,0
2020-03-04T11:43:00-05:00,46.67,19.09,736.97,1154.82,4.22,38.87,0
2020-03-04T11:44:00-05:00,46.47,19.1,736.9,1174.37,0.88,30.97,0
2020-03-04T11:45:00-05:00,45.77,19.02,738.14,559.08,2.49,17.61,0
2020-03-04T11:46:00-05:00,45.59,19,736.74,1162.46,0.79,13.7,0
2020-03-04T11:47:00-05:00,46.27,19.14,737.94,1145.11,2.02,95.26,0
2020-03-04T11:48:00-05:00,46.28,19.2,736.54,1142.76,1.26,354.48,0
2020-03-04T11:49:00-05:00,47.87,19.26,736.4,1143.94,0.86,7.28,0
2020-03-04T11:50:00-05:00,45.67,19.18,736.64,1135.26,1.57,330.53,0
2020-03-04T11:51:00-05:00,46.78,19.2,736.67,1138.2,3.05,22.46,0
2020-03-04T11:52:00-05:00,45.82,19.16,736.6,1140.85,3.57,34.63,0
2020-03-04T11:53:00-05:00,46.67,19.1,736.57,1133.35,0.34,229.17,0
2020-03-04T11:54:00-05:00,47.64,19.08,736.67,1122.47,1.29,41.42,0
2020-03-04T11:55:00-05:00,46.07,19.06,737.61,1141.58,0.66,69.38,0
2020-03-04T11:56:00-05:00,47.8,19.22,737.34,1160.84,2.53,298.97,0
2020-03-04T11:57:00-05:00,49.29,19.39,736.7,215.48,1.55,221.21,0
2020-03-04T11:58:00-05:00,49.27,19.35,736.67,685.08,0.84,226.85,0
2020-03-04T11:59:00-05:00,47.88,19.36,736.7,1170.99,2.51,106.2,0
2020-03-04T12:00:00-05:00,46.06,19.26,737.81,1166.58,3.12,37.07,0
2020-03-04T12:01:00-05:00,46.39,19.22,737.47,1148.49,1.8,240.84,0
2020-03-04T12:02:00-05:00,49.89,19.32,737.24,1126.29,0.92,356.45,0
2020-03-04T12:03:00-05:00,51.96,19.5,737.07,1148.49,0.85,267.71,0
2020-03-04T12:04:00-05:00,54.01,19.77,737.04,1158.49,0.66,231.85,0
2020-03-04T12:05:00-05:00,52.33,20.05,736.57,592.89,1.14,274.77,0
2020-03-04T12:06:00-05:00,51.41,20.27,737.54,395.44,0.69,291.65,0
2020-03-04T12:07:00-05:00,50.98,20.42,735.93,1102.77,0.7,277.64,0
2020-03-04T12:08:00-05:00,51.69,20.58,736.84,1147.32,0.9,276.05,0
2020-03-04T12:09:00-05:00,45.6,20.66,737.51,1161.73,0.57,1.77,0
2020-03-04T12:10:00-05:00,46.95,20.68,737.37,1141.14,1.1,347.81,0
2020-03-04T12:11:00-05:00,50.76,20.87,737.31,1134.23,1.27,244.78,0
2020-03-04T12:12:00-05:00,47.17,21.01,735.8,213.28,0.49,145.64,0
2020-03-04T12:13:00-05:00,43.16,21.01,736.87,1124.09,0.24,30.25,0
2020-03-04T12:14:00-05:00,43.56,20.88,736.07,1124.53,1.81,99.92,0
2020-03-04T12:15:00-05:00,47.31,20.79,735.7,1136,2.01,309.62,0
2020-03-04T12:16:00-05:00,44.2,20.85,735.93,1129.82,4.34,30.65,0
2020-03-04T12:17:00-05:00,44.5,20.73,735.63,1127.18,2.03,34.45,0
2020-03-04T12:18:00-05:00,43.99,20.75,737.24,1126.59,2.37,27.03,0
2020-03-04T12:19:00-05:00,43.25,20.65,736.13,1118.65,3.16,26.73,0
2020-03-04T12:20:00-05:00,42.58,20.48,735.8,1115.56,2.52,56.98,0
2020-03-04T12:21:00-05:00,44.69,20.37,737.17,1101.74,2.82,68.34,0
2020-03-04T12:22:00-05:00,42.99,20.28,736.87,1116.3,2.34,353.47,0
2020-03-04T12:23:00-05:00,43.67,20.04,735.9,1125.71,2.37,34.84,0
2020-03-04T12:24:00-05:00,43.24,20.01,735.73,1127.47,2.8,354.47,0
2020-03-04T12:25:00-05:00,43.73,20.06,736.87,1135.56,2.09,62.19,0
2020-03-04T12:26:00-05:00,43.83,20.05,736,1138.06,4.42,28.72,0
2020-03-04T12:27:00-05:00,42.88,19.93,735.67,1145.85,4.44,21.96,0
2020-03-04T12:28:00-05:00,44.57,19.74,736.84,1143.2,1.78,2.77,0
2020-03-04T12:29:00-05:00,48.04,19.8,735.63,1151.29,0.56,357.81,0
2020-03-04T12:30:00-05:00,46.65,19.92,737.14,1164.23,2.42,32.39,0
2020-03-04T12:31:00-05:00,44.71,19.92,736.07,1160.11,2.46,31.6,0
2020-03-04T12:32:00-05:00,47.82,19.97,737.27,1154.37,1.44,354.47,0
2020-03-04T12:33:00-05:00,46.66,20.11,736.37,1155.11,0.9,215.22,0
2020-03-04T12:34:00-05:00,49.14,20.35,736.6,1153.49,0.82,291.7,0
2020-03-04T12:35:00-05:00,48.17,20.65,735.53,1174.66,1.9,273.74,0
2020-03-04T12:36:00-05:00,46.72,20.91,735.23,1170.25,0.79,268.72,0
2020-03-04T12:37:00-05:00,49.55,21.16,736.87,1149.96,0.57,241.83,0
2020-03-04T12:38:00-05:00,42.86,21.3,735.63,1156.87,2.62,23.46,0
2020-03-04T12:39:00-05:00,39.21,21,735.5,1124.68,0.71,89.95,0
2020-03-04T12:40:00-05:00,41.23,20.92,736.87,1131.88,2.51,311.58,0
2020-03-04T12:41:00-05:00,41.34,20.81,735.06,1143.35,1.31,318.59,0
2020-03-04T12:42:00-05:00,43.04,20.77,736.87,1145.55,1.35,223.95,0
2020-03-04T12:43:00-05:00,44.85,20.95,736.6,1177.31,0.99,227.82,0
2020-03-04T12:44:00-05:00,46,21.05,735.56,1195.1,0.35,186.32,0
2020-03-04T12:45:00-05:00,43.63,21.25,736.74,1183.19,2.07,5.67,0
2020-03-04T12:46:00-05:00,43.78,21.26,736.43,1187.16,2.53,49.56,0
2020-03-04T12:47:00-05:00,42.41,21.25,736.64,1182.75,1.05,356.43,0
2020-03-04T12:48:00-05:00,43.03,21.26,736.43,1155.85,2.67,5.9,0
2020-03-04T12:49:00-05:00,42.67,21.15,736.07,896.05,2.85,30.38,0
2020-03-04T12:50:00-05:00,43.14,21.06,736.7,1141.14,2.21,46.35,0
2020-03-04T12:51:00-05:00,43.34,21.01,735.67,1133.2,0.88,209.94,0
2020-03-04T12:52:00-05:00,43.85,21.11,735.97,1136.58,2.02,20.02,0
2020-03-04T12:53:00-05:00,45.04,21.19,736.23,1155.7,3.33,20.02,0
2020-03-04T12:54:00-05:00,43.81,21.38,736.4,1158.49,0.95,343.56,0
2020-03-04T12:55:00-05:00,43.02,21.54,735.5,1158.34,0.99,32.38,0
2020-03-04T12:56:00-05:00,41.97,21.48,736.17,339.42,3.74,57.61,0
2020-03-04T12:57:00-05:00,41.64,21.25,736.6,752.12,2.7,326.55,0
2020-03-04T12:58:00-05:00,42.28,21.15,735.16,1153.64,1.94,23.92,0
2020-03-04T12:59:00-05:00,41.97,20.96,735.3,1156.73,5.62,28.23,0
2020-03-04T13:00:00-05:00,42.85,20.83,736.17,1155.26,0.94,345.49,0
2020-03-04T13:01:00-05:00,49.07,21.01,736.64,1139.23,0.68,90.7,0
2020-03-04T13:02:00-05:00,47.86,21.28,736.6,1154.52,0.18,300.68,0
2020-03-04T13:03:00-05:00,45.26,21.57,735.03,1162.9,0.17,301.01,0
2020-03-04T13:04:00-05:00,44.67,21.81,735.16,397.94,0.34,140.27,0
2020-03-04T13:05:00-05:00,46.88,22.01,734.63,503.8,1.32,315.87,0
2020-03-04T13:06:00-05:00,43.76,22.19,734.86,319.43,0.56,301.64,0
2020-03-04T13:07:00-05:00,42.28,22.28,736.47,1177.46,0.84,331.86,0
2020-03-04T13:08:00-05:00,41.47,22.33,734.69,1149.52,0.85,352.5,0
2020-03-04T13:09:00-05:00,41.82,22.42,735.36,1130.41,1.98,17.88,0
2020-03-04T13:10:00-05:00,42.86,22.55,735.2,1122.76,0.92,337.5,0
2020-03-04T13:11:00-05:00,40.34,22.63,735.93,1129.38,1.13,324.6,0
2020-03-04T13:12:00-05:00,41.33,22.75,734.86,1131,2.67,40.7,0
2020-03-04T13:13:00-05:00,41.16,22.79,736.23,1128.5,0.68,307.66,0
2020-03-04T13:14:00-05:00,41.54,23,735.2,201.81,0.83,12.76,0
2020-03-04T13:15:00-05:00,40.58,23,734.9,209.16,1.17,339.49,0
2020-03-04T13:16:00-05:00,38.59,22.87,736.17,188.28,6.47,41.73,0
2020-03-04T13:17:00-05:00,39.56,22.32,734.73,1140.41,2.42,72.88,0
2020-03-04T13:18:00-05:00,40.08,22.17,736.27,581.28,0.29,28.54,0
2020-03-04T13:19:00-05:00,39.46,22.07,734.79,1100.27,0.52,57.38,0
2020-03-04T13:20:00-05:00,40.93,22.14,734.96,1121.88,1.04,6.84,0
2020-03-04T13:21:00-05:00,38.88,22.22,734.56,1124.82,0.79,43.31,0
2020-03-04T13:22:00-05:00,37.7,22.24,736.1,1128.35,2.4,5.09,0
2020-03-04T13:23:00-05:00,38.27,22.2,735.9,1124.53,1.84,4.72,0
2020-03-04T13:24:00-05:00,37.44,22.2,734.93,1114.83,0.95,309.03,0
2020-03-04T13:25:00-05:00,38.77,22.24,735.5,1104.24,0.69,237.75,0
2020-03-04T13:26:00-05:00,41.63,22.43,734.96,1115.27,0.81,230.89,0
2020-03-04T13:27:00-05:00,42.13,22.69,735.7,1107.77,0.19,153.89,0
2020-03-04T13:28:00-05:00,43.05,22.92,735.53,1130.26,0.86,148.82,0
2020-03-04T13:29:00-05:00,40,23.14,734.26,1098.95,1.85,42.08,0
2020-03-04T13:30:00-05:00,37.81,23.23,734.36,1093.51,0.64,60.73,0
2020-03-04T13:31:00-05:00,36.71,23.19,734.76,1127.76,2.71,60.16,0
2020-03-04T13:32:00-05:00,35.79,22.93,734.39,1084.39,1.64,46.25,0
2020-03-04T13:33:00-05:00,35.78,22.67,734.86,1052.93,4.81,55.62,0
2020-03-04T13:34:00-05:00,36.05,22.28,735.63,1081.75,1.21,177.09,0
2020-03-04T13:35:00-05:00,38.37,22.33,735.87,1093.07,2.65,167.46,0
2020-03-04T13:36:00-05:00,37.33,22.4,734.33,1107.92,2.32,125.37,0
2020-03-04T13:37:00-05:00,37.08,22.34,735.33,1100.12,2.74,168.51,0
2020-03-04T13:38:00-05:00,35.32,22.14,735.83,1094.39,2.79,299.66,0
2020-03-04T13:39:00-05:00,35.41,22.2,734.23,1099.39,1.24,128.25,0
2020-03-04T13:40:00-05:00,35.12,22.12,734.73,1099.39,2.91,46.52,0
2020-03-04T13:41:00-05:00,34.8,21.91,735.5,1118.35,2.37,84.23,0
2020-03-04T13:42:00-05:00,35.59,21.94,735.5,1126,0.6,274.73,0
2020-03-04T13:43:00-05:00,33.43,21.95,734.39,1093.95,3.07,190.04,0
2020-03-04T13:44:00-05:00,36.58,21.9,734.53,1078.8,1.68,210.91,0
2020-03-04T13:45:00-05:00,39.54,22.03,735.63,1077.78,0.86,190.98,0
2020-03-04T13:46:00-05:00,37.6,22.21,735.67,1062.49,2.28,23.49,0
2020-03-04T13:47:00-05:00,35.61,22.16,735.53,1062.78,5.51,39.1,0
2020-03-04T13:48:00-05:00,35.52,22.04,735.33,1055.43,2.55,39.77,0
2020-03-04T13:49:00-05:00,37.62,21.96,734.23,1037.64,0.6,45.34,0
2020-03-04T13:50:00-05:00,38.33,22.08,734.69,1029.26,0.56,74.04,0
2020-03-04T13:51:00-05:00,36.04,22.19,735.9,1027.05,1.03,24.19,0
2020-03-04T13:52:00-05:00,35.28,22.07,735.1,1031.61,2.37,18.75,0
2020-03-04T13:53:00-05:00,37.99,22.01,735.46,1029.85,2.72,15.57,0
2020-03-04T13:54:00-05:00,37.15,22.06,735.03,1029.7,3.09,41.01,0
2020-03-04T13:55:00-05:00,36.57,22.02,734.06,1039.84,3.4,43.51,0
2020-03-04T13:56:00-05:00,34.5,21.89,735.06,1032.2,2.35,52.07,0
2020-03-04T13:57:00-05:00,33.8,21.78,735.73,1023.97,1.66,324.62,0
2020-03-04T13:58:00-05:00,33.96,21.72,734.79,1015,4.62,33.39,0
2020-03-04T13:59:00-05:00,32.62,21.67,734.33,1016.91,2.79,21.84,0
2020-03-04T14:00:00-05:00,32.3,21.55,735.5,1017.79,0.62,313.56,0
2020-03-04T14:01:00-05:00,35.21,21.64,735.73,1011.17,0.25,152.2,0
2020-03-04T14:02:00-05:00,33.34,21.74,735.83,1012.64,2.73,60.2,0
2020-03-04T14:03:00-05:00,31.6,21.78,734.53,1014.85,1.62,351.51,0
2020-03-04T14:04:00-05:00,32.77,21.88,735.16,1016.61,0.09,328.55,0
2020-03-04T14:05:00-05:00,33.74,22.02,734.26,1009.85,0.59,57.26,0
2020-03-04T14:06:00-05:00,36.77,22.2,734.33,966.92,0.55,11.48,0
2020-03-04T14:07:00-05:00,35.18,22.26,735.56,587.16,2.19,27.45,0
2020-03-04T14:08:00-05:00,34.02,22.11,735.03,992.8,2.48,55.72,0
2020-03-04T14:09:00-05:00,33.6,21.86,734.63,968.24,0.48,11.03,0
2020-03-04T14:10:00-05:00,34.83,21.84,734.09,950.01,1.78,0.85,0
2020-03-04T14:11:00-05:00,35.02,21.88,734.23,947.95,0.54,7.37,0
2020-03-04T14:12:00-05:00,35.61,21.9,735.3,939.13,2.59,13.82,0
2020-03-04T14:13:00-05:00,34.83,22,735.46,953.1,0.7,28.05,0
2020-03-04T14:14:00-05:00,36.18,22.08,734.93,146.23,2.18,259.76,0
2020-03-04T14:15:00-05:00,34.81,22,734.49,470.72,0.9,50.04,0
2020-03-04T14:16:00-05:00,35.83,22,733.46,655.23,2.36,11.83,0
2020-03-04T14:17:00-05:00,38.49,22.12,735.13,782.26,1.41,356.77,0
2020-03-04T14:18:00-05:00,35.26,22.16,734.02,954.86,0.38,76.35,0
2020-03-04T14:19:00-05:00,35.92,22.23,734.19,949.13,5.56,31.58,0
2020-03-04T14:20:00-05:00,34.8,21.98,735.7,942.51,2.82,151.4,0
2020-03-04T14:21:00-05:00,37.09,21.88,735.23,935.46,1.65,69.49,0
2020-03-04T14:22:00-05:00,35.9,21.92,733.86,936.49,2.86,59.69,0
2020-03-04T14:23:00-05:00,36.55,22,734.86,930.9,2.51,18.1,0
2020-03-04T14:24:00-05:00,36.11,21.97,734.06,934.57,3.35,41.47,0
2020-03-04T14:25:00-05:00,37.72,22.01,734.96,935.9,3.22,352.52,0
2020-03-04T14:26:00-05:00,35.16,21.98,733.86,937.52,3.48,49.86,0
2020-03-04T14:27:00-05:00,35.45,21.82,734.33,934.43,4.26,44.55,0
2020-03-04T14:28:00-05:00,35.94,21.64,733.96,940.9,1.48,91.22,0
2020-03-04T14:29:00-05:00,35.34,21.65,734.96,943.4,2.67,152.12,0
2020-03-04T14:30:00-05:00,35.71,21.66,735.06,946.63,0.84,301.08,0
2020-03-04T14:31:00-05:00,36.56,21.79,734.39,951.34,2.43,207.98,0
2020-03-04T14:32:00-05:00,38.22,21.98,734.33,913.4,0.77,78.1,0
2020-03-04T14:33:00-05:00,34.8,22.02,733.59,920.46,1.18,214.94,0
2020-03-04T14:34:00-05:00,35.24,22,733.62,906.79,2.03,40.13,0
2020-03-04T14:35:00-05:00,34.04,22.05,734.02,902.38,0.52,200.98,0
2020-03-04T14:36:00-05:00,33.13,22.01,735.16,902.67,2.95,325.58,0
2020-03-04T14:37:00-05:00,36.39,22.07,733.59,900.32,0.39,182.05,0
2020-03-04T14:38:00-05:00,34.01,22.16,733.79,892.53,2.03,9.52,0
2020-03-04T14:39:00-05:00,33.86,22.26,735.46,886.35,2.4,41.11,0
2020-03-04T14:40:00-05:00,33.27,22.3,734.83,882.97,4.43,31.08,0
2020-03-04T14:41:00-05:00,31.34,22.17,734.13,881.21,2.32,298.72,0
2020-03-04T14:42:00-05:00,32.81,22.25,734.79,874.74,0.97,250.79,0
2020-03-04T14:43:00-05:00,32.48,22.4,733.92,875.47,1.62,5.29,0
2020-03-04T14:44:00-05:00,33.11,22.53,734.69,855.62,0.85,353.46,0
2020-03-04T14:45:00-05:00,36.25,22.71,735.06,853.12,0.67,261.07,0
2020-03-04T14:46:00-05:00,36.61,22.95,735,850.77,0.64,278.65,0
2020-03-04T14:47:00-05:00,34.48,23.15,733.99,848.12,1.87,8.12,0
2020-03-04T14:48:00-05:00,31.99,23.25,734.19,838.72,0.9,7.04,0
2020-03-04T14:49:00-05:00,31.53,23,734.59,831.07,0.93,341.93,0
2020-03-04T14:50:00-05:00,31.96,22.77,734.26,826.95,1.71,38.38,0
2020-03-04T14:51:00-05:00,32.61,22.57,733.89,826.66,3.06,64.68,0
2020-03-04T14:52:00-05:00,34.56,22.37,734.9,816.51,1.36,48.91,0
2020-03-04T14:53:00-05:00,34.72,22.38,734.02,813.28,0.65,51.2,0
2020-03-04T14:54:00-05:00,38.74,22.52,735.1,806.22,1.59,123.77,0
2020-03-04T14:55:00-05:00,37.15,22.56,734.33,805.34,1.1,225.34,0
2020-03-04T14:56:00-05:00,33.77,22.57,733.49,805.05,1.83,184,0
2020-03-04T14:57:00-05:00,35.03,22.56,733.39,809.6,1.15,346.5,0
2020-03-04T14:58:00-05:00,35.37,22.68,733.72,803.58,2.48,218.86,0
2020-03-04T14:59:00-05:00,36.21,22.89,733.49,799.75,0.76,295.63,0
2020-03-04T15:00:00-05:00,33.68,23.01,733.79,802.25,1.78,60.89,0
2020-03-04T15:01:00-05:00,32.67,22.81,733.29,804.9,0.51,282.7,0
2020-03-04T15:02:00-05:00,33.66,22.71,733.52,696.98,2.66,31.14,0
2020-03-04T15:03:00-05:00,34.03,22.64,733.82,327.22,0.69,354.46,0
2020-03-04T15:04:00-05:00,34.2,22.52,732.75,189.75,2.79,22.28,0
2020-03-04T15:05:00-05:00,33.97,22.36,733.62,140.21,0.74,42.21,0
2020-03-04T15:06:00-05:00,34.36,22.15,733.02,142.85,2.44,1.11,0
2020-03-04T15:07:00-05:00,35.58,21.96,732.69,169.32,2.82,5.67,0
2020-03-04T15:08:00-05:00,35.99,21.81,733.32,824.31,1.19,16.06,0
2020-03-04T15:09:00-05:00,36.33,21.79,734.13,146.68,2.1,11.91,0
2020-03-04T15:10:00-05:00,35.42,21.64,733.92,128.3,3.22,38.8,0
2020-03-04T15:11:00-05:00,35.41,21.44,733.02,168.58,4.64,1.71,0
2020-03-04T15:12:00-05:00,37.05,21.32,733.72,120.36,0.81,149.23,0
2020-03-04T15:13:00-05:00,35.1,21.22,734.56,112.71,2.09,132.88,0
2020-03-04T15:14:00-05:00,34.13,21.07,732.42,115.8,1.54,351.51,0
2020-03-04T15:15:00-05:00,35.15,20.99,732.75,114.33,1.71,87.8,0
2020-03-04T15:16:00-05:00,37.17,20.9,733.32,122.27,2.06,35.13,0
2020-03-04T15:17:00-05:00,37.36,20.76,733.02,139.32,4.59,50.26,0
2020-03-04T15:18:00-05:00,37.66,20.65,734.02,156.09,2.27,18.95,0
2020-03-04T15:19:00-05:00,37.46,20.61,733.52,198.72,2.04,57.08,0
2020-03-04T15:20:00-05:00,38.93,20.61,733.86,276.2,2.14,152.14,0
2020-03-04T15:21:00-05:00,36.73,20.67,733.92,709.63,2.35,316.99,0
2020-03-04T15:22:00-05:00,37.16,20.73,733.72,317.66,0.61,98.52,0
2020-03-04T15:23:00-05:00,37.26,20.82,734.86,510.85,2.45,168.45,0
2020-03-04T15:24:00-05:00,37.42,20.85,734.49,728.15,2.79,90.86,0
2020-03-04T15:25:00-05:00,37.89,20.86,734.56,573.48,2.73,118.55,0
2020-03-04T15:26:00-05:00,38.05,20.82,734.66,346.63,3.18,139.27,0
2020-03-04T15:27:00-05:00,37.42,20.79,734.66,653.61,2.06,181.09,0
2020-03-04T15:28:00-05:00,37.85,20.84,734.49,181.37,0.51,129.55,0
2020-03-04T15:29:00-05:00,39.72,20.91,733.22,671.84,0.9,199.27,0
2020-03-04T15:30:00-05:00,38.94,20.98,735,687.28,3.22,47.77,0
2020-03-04T15:31:00-05:00,37.18,20.97,733.22,164.91,4.16,36.29,0
2020-03-04T15:32:00-05:00,36.72,20.87,734.29,699.48,2.27,5.66,0
2020-03-04T15:33:00-05:00,36.66,20.87,734.86,593.04,0.59,324.61,0
2020-03-04T15:34:00-05:00,36.7,20.9,733.69,240.04,1.59,350.55,0
2020-03-04T15:35:00-05:00,37.46,20.91,733.25,169.46,2.13,25.64,0
2020-03-04T15:36:00-05:00,37.55,20.89,733.46,158.29,2.65,1.1,0
2020-03-04T15:37:00-05:00,37.34,20.84,734.16,148.29,3.02,89.42,0
2020-03-04T15:38:00-05:00,37.76,20.77,734.39,143.59,1.13,296.94,0
2020-03-04T15:39:00-05:00,39.7,20.74,734.66,142.12,1.41,296.6,0
2020-03-04T15:40:00-05:00,39.17,20.7,734.29,141.24,1.48,257.19,0
2020-03-04T15:41:00-05:00,40.56,20.66,734.46,144.32,0.93,49.22,0
2020-03-04T15:42:00-05:00,39.94,20.59,733.72,177.55,2.65,8.68,0
2020-03-04T15:43:00-05:00,39.8,20.46,734.49,532.47,4.23,45.95,0
2020-03-04T15:44:00-05:00,40.83,20.42,734.56,205.49,2.1,29.03,0
2020-03-04T15:45:00-05:00,40.52,20.37,733.79,124.33,0.84,50.28,0
2020-03-04T15:46:00-05:00,40.67,20.36,734.56,135.8,4.11,34.12,0
2020-03-04T15:47:00-05:00,40.04,20.29,733.79,144.32,2.86,41.66,0
2020-03-04T15:48:00-05:00,40.73,20.22,733.52,181.67,2.51,20.79,0
2020-03-04T15:49:00-05:00,39.35,20.21,733.22,180.78,1.71,62.63,0
2020-03-04T15:50:00-05:00,39.91,20.16,733.42,261.94,0.69,210.94,0
2020-03-04T15:51:00-05:00,40.71,20.15,734.86,214.6,3.35,64.26,0
2020-03-04T15:52:00-05:00,41.87,20.15,734.43,180.05,3.56,54.91,0
2020-03-04T15:53:00-05:00,42.61,20.1,734.43,181.81,5.06,47.48,0
2020-03-04T15:54:00-05:00,43.09,20.01,734.76,180.64,3.19,87.1,0
2020-03-04T15:55:00-05:00,53.14,19.89,733.09,243.12,3.75,92.68,0
2020-03-04T15:56:00-05:00,57.11,19.72,733.79,314.58,2.21,298.68,0
2020-03-04T15:57:00-05:00,55.84,19.66,735.03,233.57,2.25,310.95,0
2020-03-04T15:58:00-05:00,55.29,19.6,733.92,195.05,1.37,209.94,0
2020-03-04T15:59:00-05:00,55.43,19.59,734.69,186.81,1.16,239.21,0
2020-03-04T16:00:00-05:00,50.54,19.54,734.23,205.78,1.4,217.89,0
2020-03-04T16:01:00-05:00,48.22,19.51,733.66,199.02,0.63,218.24,0
2020-03-04T16:02:00-05:00,46.43,19.52,733.49,616.12,0.94,224.23,0
2020-03-04T16:03:00-05:00,47.7,19.66,735.36,607.3,0.88,296.86,0
2020-03-04T16:04:00-05:00,48.34,19.87,734.53,595.54,0.21,30.79,0
2020-03-04T16:05:00-05:00,46.33,20.11,735.13,575.84,2.89,315.52,0
2020-03-04T16:06:00-05:00,44.16,20.23,735.06,552.9,2.52,29.35,0
2020-03-04T16:07:00-05:00,42.66,20.27,733.76,528.2,1.7,75.17,0
2020-03-04T16:08:00-05:00,41.03,20.33,734.66,512.47,2.4,193.95,0
2020-03-04T16:09:00-05:00,42.4,20.33,733.62,512.03,2.05,5.69,0
2020-03-04T16:10:00-05:00,41.63,20.33,733.89,517.91,0.62,261.72,0
2020-03-04T16:11:00-05:00,44.73,20.49,734.96,543.49,0.58,216.87,0
2020-03-04T16:12:00-05:00,44.35,20.71,734.29,536.58,0.76,50.61,0
2020-03-04T16:13:00-05:00,41.73,20.76,735.33,513.35,0.89,179.12,0
2020-03-04T16:14:00-05:00,50.32,20.81,733.92,502.77,3.65,255.03,0
2020-03-04T16:15:00-05:00,53.91,20.78,733.66,499.53,1.52,240.84,0
2020-03-04T16:16:00-05:00,50.1,20.77,735.06,479.39,1.16,230.15,0
2020-03-04T16:17:00-05:00,50.93,20.89,734.16,468.95,0.8,31.85,0
2020-03-04T16:18:00-05:00,56.6,20.99,733.66,447.93,2.36,348.8,0
2020-03-04T16:19:00-05:00,57.6,20.9,735.03,418.96,0.82,344.49,0
2020-03-04T16:20:00-05:00,58.28,20.89,733.46,398.53,0.68,331.83,0
2020-03-04T16:21:00-05:00,58.44,20.96,735.33,374.27,0.56,36.68,0
2020-03-04T16:22:00-05:00,58.3,21.01,734.86,333.54,1.96,44.92,0
2020-03-04T16:23:00-05:00,57.44,20.95,733.82,118.74,1.78,357.45,0
2020-03-04T16:24:00-05:00,57.94,20.81,733.29,101.54,0.48,188.08,0
2020-03-04T16:25:00-05:00,58.82,20.78,733.49,80.07,0.58,291.7,0
2020-03-04T16:26:00-05:00,59.68,20.75,733.72,82.72,0.84,343.53,0
2020-03-04T16:27:00-05:00,59.48,20.58,734.66,69.93,1.42,34.52,0
2020-03-04T16:28:00-05:00,60.49,20.39,733.36,59.78,0.85,326.59,0
2020-03-04T16:29:00-05:00,61.23,20.27,732.95,62.43,2.19,308.65,0
2020-03-04T16:30:00-05:00,52.15,20.07,733.72,59.05,1.69,236.77,0
2020-03-04T16:31:00-05:00,49.37,19.91,734.59,64.64,0.93,167.44,0
2020-03-04T16:32:00-05:00,50.86,19.78,733.39,66.99,0.91,309.64,0
2020-03-04T16:33:00-05:00,52.38,19.69,734.23,84.19,1.02,37.96,0
2020-03-04T16:34:00-05:00,53.57,19.61,733.62,88.6,0.64,273.73,0
2020-03-04T16:35:00-05:00,52.87,19.55,734.73,92.13,1.03,338.88,0
2020-03-04T16:36:00-05:00,56.29,19.46,734.76,101.69,2,27,0
2020-03-04T16:37:00-05:00,58.47,19.36,734.16,308.4,1.71,39.65,0
2020-03-04T16:38:00-05:00,59.29,19.29,733.92,112.27,1.97,28.27,0
2020-03-04T16:39:00-05:00,60.65,19.22,733.42,92.28,0.67,345.5,0
2020-03-04T16:40:00-05:00,61.56,19.2,733.52,182.26,0.56,9.63,0
2020-03-04T16:41:00-05:00,62.76,19.24,734.43,222.25,0.83,315.53,0
2020-03-04T16:42:00-05:00,64.36,19.26,734.02,151.38,0.81,313.57,0
2020-03-04T16:43:00-05:00,64.33,19.18,734.9,127.12,0.56,23.29,0
2020-03-04T16:44:00-05:00,65.07,19.06,734.29,134.77,0.7,3.69,0
2020-03-04T16:45:00-05:00,65.51,19.04,733.82,140.06,0.73,49.99,0
2020-03-04T16:46:00-05:00,65.79,19.02,733.46,133,1.16,27.01,0
2020-03-04T16:47:00-05:00,66.08,19.04,734.39,127.71,0.65,342.53,0
2020-03-04T16:48:00-05:00,65.91,19.1,734.63,134.18,0.12,125.52,0
2020-03-04T16:49:00-05:00,65.08,19.08,735.03,146.09,0.74,348.43,0
2020-03-04T16:50:00-05:00,64.34,19.08,733.72,160.64,1.57,5.81,0
2020-03-04T16:51:00-05:00,65.06,19.08,735.06,165.35,1.46,2.71,0
2020-03-04T16:52:00-05:00,66.33,19.08,733.79,152.85,0.62,207.34,0
2020-03-04T16:53:00-05:00,66.8,19.15,734.26,146.53,1.66,24.35,0
2020-03-04T16:54:00-05:00,65.2,19.15,733.82,169.76,0.64,29.31,0
2020-03-04T16:55:00-05:00,66.55,19.12,734.16,203.57,0.23,97.7,0
2020-03-04T16:56:00-05:00,67.3,19.2,735.43,159.32,0.6,95.82,0
2020-03-04T16:57:00-05:00,65.86,19.27,735.56,176.82,1.13,58.69,0
2020-03-04T16:58:00-05:00,65.3,19.3,735.4,203.13,0.94,141.4,0
2020-03-04T16:59:00-05:00,65.22,19.28,733.79,215.34,2.82,67.96,0
2020-03-04T17:00:00-05:00,65.37,19.3,735.53,220.78,0.45,144.23,0
2020-03-04T17:01:00-05:00,65.24,19.4,733.86,236.36,0.37,327.54,0
2020-03-04T17:02:00-05:00,64.57,19.49,735.36,260.32,0.76,16.59,0
2020-03-04T17:03:00-05:00,63.73,19.44,733.76,210.48,0.89,343.5,0
2020-03-04T17:04:00-05:00,64.01,19.42,733.56,145.79,0.68,52.52,0
2020-03-04T17:05:00-05:00,63.99,19.38,735.03,120.06,1.02,13.26,0
2020-03-04T17:06:00-05:00,63.2,19.37,734.56,119.48,0.6,195.89,0
2020-03-04T17:07:00-05:00,62.93,19.35,734.29,120.36,0.78,40.33,0
2020-03-04T17:08:00-05:00,63.33,19.24,734.86,126.09,0.06,249.81,0
2020-03-04T17:09:00-05:00,64.04,19.19,735.03,165.05,0.57,324.92,0
2020-03-04T17:10:00-05:00,64.47,19.23,734.86,203.57,0.68,289.92,0
2020-03-04T17:11:00-05:00,64.56,19.28,734.33,171.08,0.25,156.58,0
2020-03-04T17:12:00-05:00,65.62,19.34,735.3,127.27,0.52,160.16,0
2020-03-04T17:13:00-05:00,64.46,19.41,735.26,105.66,0.26,246.1,0
2020-03-04T17:14:00-05:00,64.42,19.29,735.4,104.19,0.21,139.79,0
2020-03-04T17:15:00-05:00,65.41,19.13,733.82,98.75,1.07,83.09,0
2020-03-04T17:16:00-05:00,64.22,18.94,734.23,95.22,2.01,27.74,0
2020-03-04T17:17:00-05:00,54.06,18.75,733.82,89.34,1.67,85.85,0
2020-03-04T17:18:00-05:00,61.63,18.7,734.83,86.98,1.69,44.7,0
2020-03-04T17:19:00-05:00,52.04,18.61,734.36,87.42,2.13,152.17,0
2020-03-04T17:20:00-05:00,51.77,18.54,735.06,83.31,2.48,81.93,0
2020-03-04T17:21:00-05:00,52.07,18.5,734.49,82.43,0.97,195.93,0
2020-03-04T17:22:00-05:00,52.91,18.45,733.89,84.78,2.16,132.22,0
2020-03-04T17:23:00-05:00,52.64,18.42,735.5,104.77,1.01,134.89,0
2020-03-04T17:24:00-05:00,53.09,18.4,734.9,110.07,0.69,235.81,0
2020-03-04T17:25:00-05:00,53.18,18.43,734.13,113.01,0.54,161.14,0
2020-03-04T17:26:00-05:00,54.58,18.4,734.26,120.36,0.58,351.87,0
2020-03-04T17:27:00-05:00,56.56,18.42,735.83,102.42,0.59,305.59,0
2020-03-04T17:28:00-05:00,55.82,18.46,735.2,93.89,0.68,4.12,0
2020-03-04T17:29:00-05:00,54.92,18.5,734.83,88.6,0.58,337.53,0
2020-03-04T17:30:00-05:00,54.79,18.49,735.97,86.25,1.54,322.89,0
2020-03-04T17:31:00-05:00,53.52,18.46,735.46,82.28,0.48,240.84,0
2020-03-04T17:32:00-05:00,56.06,18.5,735.7,78.75,0.61,121.52,0
2020-03-04T17:33:00-05:00,53.78,18.51,734.83,72.43,0.59,268.73,0
2020-03-04T17:34:00-05:00,54.95,18.55,734.93,67.14,0.29,281.74,0
2020-03-04T17:35:00-05:00,55.73,18.58,734.02,63.9,0.17,68,0
2020-03-04T17:36:00-05:00,59.66,18.56,735.9,61.55,0.7,255.71,0
2020-03-04T17:37:00-05:00,64.89,18.51,736.07,57.29,1.67,319.56,0
2020-03-04T17:38:00-05:00,63.98,18.37,735.53,51.7,0.59,6.04,0
2020-03-04T17:39:00-05:00,61.86,18.22,736.07,50.23,0.56,18.83,0
2020-03-04T17:40:00-05:00,64.72,18.15,735.3,44.2,0.41,186.97,0
2020-03-04T17:41:00-05:00,65.36,18.12,734.83,28.91,0.58,231.87,0
2020-03-04T17:42:00-05:00,64.74,18.11,735.16,29.94,0.54,222.93,0
2020-03-04T17:43:00-05:00,63.5,18.07,734.49,25.09,0.06,211.23,0
2020-03-04T17:44:00-05:00,65.7,18.01,734.96,21.56,0.63,224.87,0
2020-03-04T17:45:00-05:00,69.29,17.96,734.26,20.97,0.26,67.6,0
2020-03-04T17:46:00-05:00,70.22,17.87,735.53,21.41,0.54,162.2,0
2020-03-04T17:47:00-05:00,70.72,17.81,735.4,20.82,0.58,186.33,0
2020-03-04T17:48:00-05:00,71.74,17.73,735.56,16.85,0.6,176.07,0
2020-03-04T17:49:00-05:00,72.48,17.61,734.79,15.09,0.64,180.47,0
2020-03-04T17:50:00-05:00,72.83,17.51,734.53,12.74,0.94,180.11,0
2020-03-04T17:51:00-05:00,73.85,17.38,735.03,11.12,0.59,172.49,0
2020-03-04T17:52:00-05:00,73.86,17.3,735,7.89,0.69,161.41,0
2020-03-04T17:53:00-05:00,74.28,17.21,735.23,7.74,0.67,166.45,0
2020-03-04T17:54:00-05:00,74.49,17.13,734.96,5.97,0.35,167.12,0
2020-03-04T17:55:00-05:00,74.57,17.06,736.17,3.33,0.69,172.14,0
2020-03-04T17:56:00-05:00,74.1,16.98,735.46,4.8,0.51,159.17,0
2020-03-04T17:57:00-05:00,74.83,16.94,735.6,4.21,0.54,76.53,0
2020-03-04T17:58:00-05:00,74.85,16.87,736.6,2.15,0.66,38.68,0
2020-03-04T17:59:00-05:00,74.79,16.81,736.07,3.47,0.78,55.41,0
2020-03-04T18:00:00-05:00,75.36,16.78,735.77,3.47,0.68,74.75,0
2020-03-04T18:01:00-05:00,75.56,16.73,735.03,2,0.27,130.66,0
2020-03-04T18:02:00-05:00,75.82,16.69,735.7,-0.05,0.57,62.27,0
2020-03-04T18:03:00-05:00,76.18,16.66,735.93,1.86,2.32,67.39,0
2020-03-04T18:04:00-05:00,63.17,16.61,735.7,0.83,2.47,65.15,0
2020-03-04T18:05:00-05:00,60.01,16.6,736.27,-0.79,0.69,330.54,0
2020-03-04T18:06:00-05:00,59.59,16.61,736.64,-1.52,0.35,338.85,0
2020-03-04T18:07:00-05:00,58.66,16.6,735.26,-0.79,1.44,23.31,0
2020-03-04T18:08:00-05:00,59.56,16.58,736.13,-0.79,0.63,29.79,0
2020-03-04T18:09:00-05:00,60.08,16.56,734.96,-1.52,1.33,39.93,0
2020-03-04T18:10:00-05:00,60.45,16.52,734.86,-2.55,1.76,57.02,0
2020-03-04T18:11:00-05:00,61.15,16.44,735.4,-2.26,0.88,82.59,0
2020-03-04T18:12:00-05:00,60.41,16.4,736.03,-3.73,1.03,83.35,0
2020-03-04T18:13:00-05:00,59.48,16.36,736.47,-4.76,1.36,62.9,0
2020-03-04T18:14:00-05:00,59,16.36,736.33,-5.05,2.36,45.28,0
2020-03-04T18:15:00-05:00,59.1,16.28,736.64,-4.17,0.65,140.23,0
2020-03-04T18:16:00-05:00,58.86,16.2,735.26,-4.76,0.87,60.55,0
2020-03-04T18:17:00-05:00,58.98,16.14,735.03,-4.76,1.71,79.49,0
2020-03-04T18:18:00-05:00,59.18,16.06,736.1,-6.23,2.67,55.18,0
2020-03-04T18:19:00-05:00,59.7,15.98,736.23,-5.05,2.75,52.48,0
2020-03-04T18:20:00-05:00,59.95,15.92,734.76,-4.17,3.47,53.18,0
2020-03-04T18:21:00-05:00,60.6,15.84,736.4,-5.2,1.65,356.48,0
2020-03-04T18:22:00-05:00,60.83,15.74,736.64,-6.08,2.41,18.61,0
2020-03-04T18:23:00-05:00,61.36,15.63,736.4,-6.38,1.3,43.84,0
2020-03-04T18:24:00-05:00,61.77,15.57,736.87,-5.79,2.29,55.45,0
2020-03-04T18:25:00-05:00,62.39,15.5,735.43,-4.32,3.25,50.04,0
2020-03-04T18:26:00-05:00,62.08,15.43,736.43,-5.93,3.4,53.7,0
2020-03-04T18:27:00-05:00,62.23,15.37,736.77,-6.67,3.37,59.01,0
2020-03-04T18:28:00-05:00,62.35,15.31,735.77,-6.52,2.12,32.46,0
2020-03-04T18:29:00-05:00,62.7,15.28,735.53,-6.23,4.39,39.35,0
2020-03-04T18:30:00-05:00,62.55,15.21,735.5,-6.52,2.69,70.15,0
2020-03-04T18:31:00-05:00,62.73,15.19,736.5,-5.64,2.56,38.78,0
2020-03-04T18:32:00-05:00,62.38,15.17,735.6,-4.32,3.79,91.02,0
2020-03-04T18:33:00-05:00,62.67,15.15,736.43,-5.35,3.45,20.34,0
2020-03-04T18:34:00-05:00,62.92,15.13,736.54,-5.49,1.92,35.56,0
2020-03-04T18:35:00-05:00,62.36,15.1,736.43,-5.64,0.78,133.22,0
2020-03-04T18:36:00-05:00,62.33,15.08,736.4,-5.64,3.08,17.67,0
2020-03-04T18:37:00-05:00,62.54,15.07,736.4,-5.05,1.64,19.5,0
2020-03-04T18:38:00-05:00,62.45,15.05,736.87,-6.38,2.27,55.3,0
2020-03-04T18:39:00-05:00,62.6,15.04,736.54,-5.93,4.66,50.15,0
2020-03-04T18:40:00-05:00,62.63,15.07,735.87,-5.79,2.79,45.02,0
2020-03-04T18:41:00-05:00,62.51,15.04,735.97,-5.49,1.03,89.95,0
2020-03-04T18:42:00-05:00,62.54,15.01,736.4,-5.79,2.83,57.04,0
2020-03-04T18:43:00-05:00,62.71,15,735.73,-5.93,1.06,55.43,0
2020-03-04T18:44:00-05:00,62.95,14.98,736.64,-4.17,1,58.77,0
2020-03-04T18:45:00-05:00,63.44,14.94,736.77,-5.64,2.34,60.02,0
2020-03-04T18:46:00-05:00,62.68,14.91,735.63,-5.35,0.75,130.95,0
2020-03-04T18:47:00-05:00,63.38,14.9,735.87,-4.91,4.65,48.95,0
2020-03-04T18:48:00-05:00,63.63,14.85,736.9,-3.73,2.3,55.29,0
2020-03-04T18:49:00-05:00,63.67,14.85,735.97,-5.49,1.17,138.62,0
2020-03-04T18:50:00-05:00,63.73,14.81,736.57,-6.38,4.98,43.38,0
2020-03-04T18:51:00-05:00,64.9,14.73,735.83,-5.93,2.69,60.84,0
2020-03-04T18:52:00-05:00,64.88,14.69,736.43,-5.93,3.42,73.56,0
2020-03-04T18:53:00-05:00,64.7,14.66,735.43,-6.23,4.44,56.9,0
2020-03-04T18:54:00-05:00,65.02,14.62,735.67,-5.64,3.96,58.3,0
2020-03-04T18:55:00-05:00,65.73,14.55,735.7,-3.73,2.71,10.94,0
2020-03-04T18:56:00-05:00,65.27,14.5,735.8,-5.2,1.69,108.17,0
2020-03-04T18:57:00-05:00,66.77,14.46,736.97,-4.61,5.21,39.5,0
2020-03-04T18:58:00-05:00,67.08,14.37,736.87,-6.08,2.57,70.1,0
2020-03-04T18:59:00-05:00,67.58,14.3,737,-5.35,3.34,60.76,0
2020-03-04T19:00:00-05:00,67.13,14.26,737.07,-4.76,1.66,19.27,0
2020-03-04T19:01:00-05:00,67.61,14.26,736.87,-3.88,2.75,16.73,0
2020-03-04T19:02:00-05:00,67.34,14.2,737.24,-6.08,3.26,77.35,0
2020-03-04T19:03:00-05:00,67.11,14.18,736.13,-4.17,2.99,91.7,0
2020-03-04T19:04:00-05:00,68.15,14.18,735.77,-3.73,3.2,85.4,0
2020-03-04T19:05:00-05:00,65.08,14.28,737.27,-3.73,3.97,50.69,0
2020-03-04T19:06:00-05:00,66.65,14.32,736.07,-3.88,4.61,32.22,0
2020-03-04T19:07:00-05:00,67.61,14.26,736.97,-3.88,3.66,34.45,0
2020-03-04T19:08:00-05:00,67.54,14.24,735.93,-4.32,6.18,39.88,0
2020-03-04T19:09:00-05:00,67.49,14.25,736,-3.14,3.56,49.08,0
2020-03-04T19:10:00-05:00,68.14,14.22,735.77,-5.49,3.07,23.68,0
2020-03-04T19:11:00-05:00,68.75,14.14,736.84,-5.49,0.28,138.29,0
2020-03-04T19:12:00-05:00,68.99,14.09,735.7,-3.73,2.61,26.63,0
2020-03-04T19:13:00-05:00,68.59,14.11,736.1,-4.02,5.7,41.88,0
2020-03-04T19:14:00-05:00,68.32,14.15,735.73,-4.02,4.7,25.02,0
2020-03-04T19:15:00-05:00,67.98,14.1,737.14,-5.49,0.8,68.08,0
2020-03-04T19:16:00-05:00,68.06,14.09,737,-3.73,2.28,22.94,0
2020-03-04T19:17:00-05:00,68.29,14.07,736.7,-5.64,1.08,50.46,0
2020-03-04T19:18:00-05:00,68.24,14.06,737.27,-4.02,4.31,34.73,0
2020-03-04T19:19:00-05:00,68.47,14.05,736.33,-3.73,3.45,34.29,0
2020-03-04T19:20:00-05:00,67.97,14.02,736.03,-6.23,3.68,7.69,0
2020-03-04T19:21:00-05:00,67.5,14.04,735.7,-5.49,5,39.88,0
2020-03-04T19:22:00-05:00,67.23,14.05,736.33,-6.08,3.93,99.53,0
2020-03-04T19:23:00-05:00,67.33,14.06,736.07,-4.91,2.8,32.13,0
2020-03-04T19:24:00-05:00,67.75,14,737.14,-4.91,5.86,28.47,0
2020-03-04T19:25:00-05:00,67.04,14.06,737.31,-3.73,3.27,22.55,0
2020-03-04T19:26:00-05:00,67.55,14.02,737.07,-4.76,4.27,72.75,0
2020-03-04T19:27:00-05:00,67.01,14.03,736.23,-3.73,3.88,57.08,0
2020-03-04T19:28:00-05:00,66.93,14.02,737.04,-4.17,3.54,46.53,0
2020-03-04T19:29:00-05:00,67.2,14,736.4,-6.52,1.58,7.73,0
2020-03-04T19:30:00-05:00,67.17,13.97,736.13,-3.73,1.24,25.55,0
2020-03-04T19:31:00-05:00,67.64,13.94,737.14,-6.67,2.57,49.07,0
2020-03-04T19:32:00-05:00,67.22,13.92,736.5,-4.17,2.3,45.62,0
2020-03-04T19:33:00-05:00,67.58,13.9,737.51,-4.46,2.8,47.54,0
2020-03-04T19:34:00-05:00,67.01,13.91,737.64,-5.2,6.03,47.49,0
2020-03-04T19:35:00-05:00,67.2,13.91,736.87,-5.49,2.99,59.92,0
2020-03-04T19:36:00-05:00,67.46,13.88,736.03,-4.17,3.7,25.39,0
2020-03-04T19:37:00-05:00,67.48,13.88,737.2,-5.49,1.47,31.91,0
2020-03-04T19:38:00-05:00,67.44,13.92,736.33,-4.91,3.77,65.81,0
2020-03-04T19:39:00-05:00,67.6,13.94,737.74,-5.2,3.49,53.46,0
2020-03-04T19:40:00-05:00,67.37,13.94,736.1,-4.46,3.57,3.69,0
2020-03-04T19:41:00-05:00,67.46,13.94,736.54,-6.52,2.15,50.84,0
2020-03-04T19:42:00-05:00,67.46,13.98,737.2,-4.17,3.55,64.79,0
2020-03-04T19:43:00-05:00,67.06,14.02,737.44,-6.23,1.88,20.35,0
2020-03-04T19:44:00-05:00,67.12,14.05,736.5,-6.23,1.72,155.21,0
2020-03-04T19:45:00-05:00,67.1,14.06,736.7,-6.23,3.21,72.6,0
2020-03-04T19:46:00-05:00,67.16,14.05,737.57,-4.46,2.19,59.13,0
2020-03-04T19:47:00-05:00,66.78,14.1,737.31,-4.76,3.24,23.37,0
2020-03-04T19:48:00-05:00,66.62,14.14,737.64,-5.2,3.22,118.61,0
2020-03-04T19:49:00-05:00,66.67,14.18,737.47,-3.44,3.88,0.85,0
2020-03-04T19:50:00-05:00,66.96,14.12,736.7,-5.49,1.41,21.37,0
2020-03-04T19:51:00-05:00,66.8,14.1,737.47,-5.49,5.62,71.22,0
2020-03-04T19:52:00-05:00,66.73,14.14,736.5,-4.17,3.22,64.64,0
2020-03-04T19:53:00-05:00,66.56,14.16,736.43,-5.64,4.03,35.71,0
2020-03-04T19:54:00-05:00,66.39,14.18,737.57,-6.08,2.33,62.03,0
2020-03-04T19:55:00-05:00,66.44,14.14,736.7,-5.2,3.43,102.03,0
2020-03-04T19:56:00-05:00,66.36,14.16,737.54,-6.38,5.19,65.74,0
2020-03-04T19:57:00-05:00,66.31,14.18,736.43,-5.2,3.42,54.46,0
2020-03-04T19:58:00-05:00,66.6,14.17,737.1,-5.64,3.31,70.55,0
2020-03-04T19:59:00-05:00,66.74,14.17,738.44,-5.2,3.56,47.23,0
2020-03-04T20:00:00-05:00,67.09,14.1,736.87,-4.32,2.98,351.84,0
2020-03-04T20:01:00-05:00,67.26,14.08,737.57,-7.26,3.81,1.82,0
2020-03-04T20:02:00-05:00,67.36,14.06,737.2,-4.91,2.78,78.51,0
2020-03-04T20:03:00-05:00,67.02,14.04,737.97,-4.17,4.53,45.34,0
2020-03-04T20:04:00-05:00,66.8,14.06,736.7,-4.91,3.11,56.06,0
2020-03-04T20:05:00-05:00,66.92,14.02,737.97,-7.11,0.82,79.46,0
2020-03-04T20:06:00-05:00,66.93,14,736.77,-7.55,0.66,21.7,0
2020-03-04T20:07:00-05:00,66.92,13.97,737.87,-7.99,2.92,54.52,0
2020-03-04T20:08:00-05:00,67.54,13.92,736.87,-6.23,1.77,56.97,0
2020-03-04T20:09:00-05:00,67.48,13.87,737.31,-5.93,3.23,71.51,0
2020-03-04T20:10:00-05:00,67.42,13.89,737.91,-7.7,2.59,130.26,0
2020-03-04T20:11:00-05:00,67.66,13.86,737.04,-5.93,3.2,37.85,0
2020-03-04T20:12:00-05:00,67.46,13.8,737.94,-5.79,1.94,49.32,0
2020-03-04T20:13:00-05:00,67.41,13.79,738.11,-6.96,3.94,28.05,0
2020-03-04T20:14:00-05:00,67.5,13.76,737.94,-6.67,3.11,17.77,0
2020-03-04T20:15:00-05:00,67.34,13.76,737.1,-6.38,2.81,60.83,0
2020-03-04T20:16:00-05:00,67.12,13.75,737.91,-5.05,2.84,43.49,0
2020-03-04T20:17:00-05:00,67.04,13.77,737.24,-4.46,3.53,59.12,0
2020-03-04T20:18:00-05:00,67.38,13.76,737.91,-4.61,1.65,15.41,0
2020-03-04T20:19:00-05:00,66.74,13.78,737.04,-6.52,4.34,33.2,0
2020-03-04T20:20:00-05:00,66.76,13.82,738.04,-6.08,0.59,81.57,0
2020-03-04T20:21:00-05:00,67.04,13.79,737.81,-6.96,1.09,99.3,0
2020-03-04T20:22:00-05:00,67.07,13.72,737.94,-7.11,0.33,94.96,0
2020-03-04T20:23:00-05:00,66.86,13.7,737.41,-7.99,1.79,206.33,0
2020-03-04T20:24:00-05:00,66.37,13.68,738.31,-5.2,1.49,180.09,0
2020-03-04T20:25:00-05:00,67.02,13.64,738.11,-7.26,0.48,63.49,0
2020-03-04T20:26:00-05:00,67.84,13.54,738.51,-7.55,0.24,138.63,0
2020-03-04T20:27:00-05:00,67.62,13.52,737,-6.67,2.48,282.73,0
2020-03-04T20:28:00-05:00,67.55,13.48,738.01,-5.64,2.28,36.79,0
2020-03-04T20:29:00-05:00,67.32,13.53,738.38,-6.52,0.59,17.37,0
2020-03-04T20:30:00-05:00,67.37,13.52,737.07,-7.55,0.59,270.7,0
2020-03-04T20:31:00-05:00,68.07,13.48,737.1,-7.85,0.93,277.7,0
2020-03-04T20:32:00-05:00,68.35,13.39,738.18,-7.55,1.03,246.72,0
2020-03-04T20:33:00-05:00,68.83,13.3,738.34,-7.55,1.32,310.64,0
2020-03-04T20:34:00-05:00,69.13,13.26,737.07,-6.38,1.49,206.98,0
2020-03-04T20:35:00-05:00,69.12,13.22,737.51,-6.96,1.15,265.76,0
2020-03-04T20:36:00-05:00,68.89,13.2,737,-5.2,0.65,340.8,0
2020-03-04T20:37:00-05:00,69.27,13.19,736.94,-6.82,1.03,247.83,0
2020-03-04T20:38:00-05:00,68.78,13.16,738.14,-4.32,0.91,201.28,0
2020-03-04T20:39:00-05:00,68.49,13.14,738.34,-7.11,0.87,271.69,0
2020-03-04T20:40:00-05:00,68.88,13.11,737.47,-5.2,1.04,194.31,0
2020-03-04T20:41:00-05:00,68.67,13.08,737,-6.96,0.13,82.21,0
2020-03-04T20:42:00-05:00,68.78,13.06,737.27,-6.96,1.05,275.09,0
2020-03-04T20:43:00-05:00,68.59,13.05,738.01,-5.05,2.53,0.74,0
2020-03-04T20:44:00-05:00,69.42,13.04,737.14,-5.05,2.28,199.24,0
2020-03-04T20:45:00-05:00,69.17,13.01,739.01,-5.35,0.58,255.72,0
2020-03-04T20:46:00-05:00,69.63,13.01,737.47,-4.02,0.64,357.46,0
2020-03-04T20:47:00-05:00,70.74,13,738.24,-7.11,0.25,95.35,0
2020-03-04T20:48:00-05:00,71.23,12.92,737.47,-5.79,0.46,192.96,0
2020-03-04T20:49:00-05:00,71.75,12.79,738.11,-5.2,0.3,248.84,0
2020-03-04T20:50:00-05:00,72.02,12.7,738.78,-5.2,0.82,70.77,0
2020-03-04T20:51:00-05:00,72.4,12.64,738.68,-5.49,1.15,101.17,0
2020-03-04T20:52:00-05:00,72.24,12.62,737.47,-6.38,0.13,145.17,0
2020-03-04T20:53:00-05:00,71.65,12.6,737.27,-5.2,0.75,321.58,0
2020-03-04T20:54:00-05:00,71.26,12.59,737.31,-3.73,0.06,256.81,0
2020-03-04T20:55:00-05:00,71.73,12.59,738.48,-6.52,0.57,34.71,0
2020-03-04T20:56:00-05:00,71.9,12.57,737.47,-4.76,0.76,206,0
2020-03-04T20:57:00-05:00,72.25,12.55,739.01,-6.08,1.14,163.56,0
2020-03-04T20:58:00-05:00,72.29,12.5,737.81,-5.64,1.18,201.92,0
2020-03-04T20:59:00-05:00,71.45,12.46,737.24,-4.02,2.54,275.13,0
2020-03-04T21:00:00-05:00,70.97,12.5,737.61,-4.17,0.89,180.09,0
2020-03-04T21:01:00-05:00,71.45,12.53,738.91,-6.08,1.33,222.28,0
2020-03-04T21:02:00-05:00,71.55,12.55,738.58,-5.64,1.52,299.67,0
2020-03-04T21:03:00-05:00,72.24,12.53,737.57,-4.91,1.91,202.26,0
2020-03-04T21:04:00-05:00,72.19,12.51,737.74,-4.61,2.02,148.24,0
2020-03-04T21:05:00-05:00,72.18,12.5,738.98,-6.08,0.58,218.92,0
2020-03-04T21:06:00-05:00,72.22,12.47,738.61,-6.52,0.63,176.09,0
2020-03-04T21:07:00-05:00,72.48,12.43,738.44,-4.91,0.35,160.16,0
2020-03-04T21:08:00-05:00,72.41,12.38,739.08,-5.05,0.78,52.99,0
2020-03-04T21:09:00-05:00,73.2,12.36,738.08,-6.52,0.57,355.48,0
2020-03-04T21:10:00-05:00,72.97,12.32,737.24,-5.64,0.99,134.83,0
2020-03-04T21:11:00-05:00,72.31,12.33,737.71,-6.08,0.44,138.27,0
2020-03-04T21:12:00-05:00,72.54,12.36,739.08,-5.35,1.88,24.69,0
2020-03-04T21:13:00-05:00,72.54,12.39,738.91,-4.46,2.02,89.27,0
2020-03-04T21:14:00-05:00,72.46,12.35,739.01,-4.17,0.43,188.38,0
2020-03-04T21:15:00-05:00,72.9,12.3,739.05,-5.64,0.56,1.06,0
2020-03-04T21:16:00-05:00,73.04,12.25,738.98,-4.76,1.06,239.22,0
2020-03-04T21:17:00-05:00,73.67,12.17,739.21,-5.79,1,149.19,0
2020-03-04T21:18:00-05:00,73.64,12.11,738.78,-5.93,0.99,193.35,0
2020-03-04T21:19:00-05:00,73.89,12.08,739.05,-4.91,0.13,302.6,0
2020-03-04T21:20:00-05:00,74.04,12.04,739.21,-7.4,0.58,115.56,0
2020-03-04T21:21:00-05:00,74.41,11.99,737.91,-4.91,0.39,71.19,0
2020-03-04T21:22:00-05:00,74.4,11.96,737.74,-6.52,1.66,288.94,0
2020-03-04T21:23:00-05:00,73.19,11.94,737.91,-6.38,0.81,169.09,0
2020-03-04T21:24:00-05:00,73.93,11.93,738.04,-4.91,0.87,144.2,0
2020-03-04T21:25:00-05:00,73.89,11.95,738.44,-4.32,0.74,13.38,0
2020-03-04T21:26:00-05:00,74.15,11.96,738.01,-4.76,0.57,256.83,0
2020-03-04T21:27:00-05:00,74.67,11.93,738.28,-4.17,0.59,221.94,0
2020-03-04T21:28:00-05:00,74.97,11.82,738.58,-5.64,0.56,31.79,0
2020-03-04T21:29:00-05:00,74.95,11.77,738.61,-4.61,0.54,304.6,0
2020-03-04T21:30:00-05:00,75.04,11.75,739.31,-6.67,3.11,8.47,0
2020-03-04T21:31:00-05:00,75.1,11.83,738.74,-5.2,0.8,116.32,0
2020-03-04T21:32:00-05:00,74.57,11.84,739.08,-5.79,1.53,51.25,0
2020-03-04T21:33:00-05:00,75.21,11.84,739.31,-5.64,1.58,55.26,0
2020-03-04T21:34:00-05:00,75.24,11.85,739.08,-5.2,0.69,38.31,0
2020-03-04T21:35:00-05:00,74.94,11.81,738.31,-3.58,0.69,73.5,0
2020-03-04T21:36:00-05:00,75.37,11.77,739.15,-5.64,0.69,89.87,0
2020-03-04T21:37:00-05:00,75.36,11.76,737.84,-5.93,0.71,139.51,0
2020-03-04T21:38:00-05:00,75.3,11.75,739.01,-3.88,0.57,198,0
2020-03-04T21:39:00-05:00,75.17,11.74,738.38,-5.79,0.77,299.05,0
2020-03-04T21:40:00-05:00,75,11.75,738.21,-5.49,0.69,224.91,0
2020-03-04T21:41:00-05:00,75.22,11.74,738.38,-6.23,0.62,148.59,0
2020-03-04T21:42:00-05:00,75.38,11.71,739.08,-4.91,0.51,12.54,0
2020-03-04T21:43:00-05:00,75.56,11.71,739.15,-4.91,0.63,207.98,0
2020-03-04T21:44:00-05:00,74.87,11.71,737.84,-4.76,0.41,290.7,0
2020-03-04T21:45:00-05:00,74.61,11.72,738.34,-5.64,0.93,7.41,0
2020-03-04T21:46:00-05:00,74.44,11.73,738.68,-4.17,0.66,56.22,0
2020-03-04T21:47:00-05:00,75.26,11.75,739.21,-3.44,0.57,130.25,0
2020-03-04T21:48:00-05:00,75.26,11.74,737.77,-5.49,0.64,131.48,0
2020-03-04T21:49:00-05:00,75.37,11.69,738.38,-4.46,0.6,75.25,0
2020-03-04T21:50:00-05:00,74.88,11.69,738.95,-6.23,1.97,40.87,0
2020-03-04T21:51:00-05:00,75.34,11.69,738.74,-5.2,0.54,136.17,0
2020-03-04T21:52:00-05:00,74.87,11.69,738.11,-5.2,0.33,133.45,0
2020-03-04T21:53:00-05:00,75.01,11.65,738.04,-4.61,0.65,64.53,0
2020-03-04T21:54:00-05:00,75.08,11.6,739.48,-5.64,0.94,84.33,0
2020-03-04T21:55:00-05:00,75.84,11.64,739.28,-3.88,0.87,36.8,0
2020-03-04T21:56:00-05:00,76.06,11.57,738.51,-5.79,0.59,86.06,0
2020-03-04T21:57:00-05:00,76.12,11.52,737.97,-7.11,0.6,80.42,0
2020-03-04T21:58:00-05:00,76,11.45,738.54,-6.23,0.73,142.56,0
2020-03-04T21:59:00-05:00,75.3,11.44,739.41,-4.17,0.75,201.95,0
2020-03-04T22:00:00-05:00,74.91,11.46,739.58,-5.49,0.67,204.29,0
2020-03-04T22:01:00-05:00,75.36,11.5,738.18,-5.35,1.59,57.58,0
2020-03-04T22:02:00-05:00,76.12,11.47,738.38,-4.17,0.92,88.39,0
2020-03-04T22:03:00-05:00,76.43,11.4,738.48,-4.32,0.87,64.5,0
2020-03-04T22:04:00-05:00,76.87,11.33,737.84,-4.91,0.58,229.79,0
2020-03-04T22:05:00-05:00,76.13,11.28,738.85,-4.61,0.26,256.84,0
2020-03-04T22:06:00-05:00,76.17,11.24,738.95,-5.79,0.56,121.93,0
2020-03-04T22:07:00-05:00,76.41,11.22,739.45,-6.67,0.23,347.48,0
2020-03-04T22:08:00-05:00,75.68,11.24,739.38,-4.32,1.53,7.8,0
2020-03-04T22:09:00-05:00,75.03,11.35,738.98,-3.29,0.21,157.2,0
2020-03-04T22:10:00-05:00,75.48,11.36,738.38,-5.79,0.71,136.24,0
2020-03-04T22:11:00-05:00,75.6,11.33,739.55,-3.88,0.66,163.44,0
2020-03-04T22:12:00-05:00,75.58,11.3,738.81,-5.05,0.56,156.22,0
2020-03-04T22:13:00-05:00,75.81,11.26,738.18,-5.05,0.24,108.27,0
2020-03-04T22:14:00-05:00,75.91,11.26,739.41,-3.88,0.66,119.78,0
2020-03-04T22:15:00-05:00,75.28,11.27,738.71,-4.46,0.58,93.85,0
2020-03-04T22:16:00-05:00,74.67,11.3,739.85,-4.61,0.6,341.58,0
2020-03-04T22:17:00-05:00,75.14,11.3,739.41,-3.29,1.4,33.62,0
2020-03-04T22:18:00-05:00,75.48,11.29,738.71,-4.61,0.62,353.49,0
2020-03-04T22:19:00-05:00,75.68,11.26,739.75,-4.76,0.09,279.99,0
2020-03-04T22:20:00-05:00,75.92,11.24,738.81,-6.08,0.12,180.09,0
2020-03-04T22:21:00-05:00,75.98,11.22,739.35,-7.11,0.59,256.83,0
2020-03-04T22:22:00-05:00,75.92,11.18,740.02,-7.11,0.48,37.1,0
2020-03-04T22:23:00-05:00,75.86,11.14,738.88,-4.91,0.64,156.49,0
2020-03-04T22:24:00-05:00,76.27,11.12,738.18,-3.88,0.82,47.29,0
2020-03-04T22:25:00-05:00,74.82,11.16,739.31,-4.46,0.67,162.25,0
2020-03-04T22:26:00-05:00,74.47,11.27,738.11,-3.73,0.71,82.27,0
2020-03-04T22:27:00-05:00,73.99,11.36,738.14,-3.58,0.53,135.96,0
2020-03-04T22:28:00-05:00,74.41,11.35,738.24,-4.76,0.55,96.46,0
2020-03-04T22:29:00-05:00,74.18,11.32,738.34,-5.64,0.86,7.28,0
2020-03-04T22:30:00-05:00,73.94,11.38,739.51,-4.76,0.57,103.34,0
2020-03-04T22:31:00-05:00,74.57,11.37,738.48,-5.2,0.64,65.31,0
2020-03-04T22:32:00-05:00,73.89,11.36,739.62,-4.02,0.58,117.5,0
2020-03-04T22:33:00-05:00,74.07,11.32,738.28,-6.08,0.66,70.41,0
2020-03-04T22:34:00-05:00,74.09,11.32,738.21,-3.73,0.83,117.54,0
2020-03-04T22:35:00-05:00,74.38,11.28,738.61,-5.49,0.57,132.25,0
2020-03-04T22:36:00-05:00,75.03,11.23,738.88,-4.76,0.59,121.34,0
2020-03-04T22:37:00-05:00,75.1,11.2,738.28,-6.38,0.57,106.78,0
2020-03-04T22:38:00-05:00,75.15,11.12,739.31,-4.46,0.63,69.09,0
2020-03-04T22:39:00-05:00,74.89,11.1,739.55,-5.2,0.6,87.9,0
2020-03-04T22:40:00-05:00,74.61,11.12,738.64,-4.61,0.63,96.25,0
2020-03-04T22:41:00-05:00,74.32,11.12,739.28,-5.2,0.64,95.35,0
2020-03-04T22:42:00-05:00,75.09,11.11,738.51,-3.58,0.6,77.45,0
2020-03-04T22:43:00-05:00,74.67,11.11,738.44,-4.46,0.38,114.23,0
2020-03-04T22:44:00-05:00,74.66,11.08,738.21,-5.05,0.13,136.21,0
2020-03-04T22:45:00-05:00,75.08,11.06,738.14,-5.79,0.3,69.74,0
2020-03-04T22:46:00-05:00,75.18,11.04,738.68,-6.52,0.58,91.54,0
2020-03-04T22:47:00-05:00,75.03,11,738.61,-6.08,0.61,114.87,0
2020-03-04T22:48:00-05:00,75.04,10.98,739.05,-6.38,0.68,117.32,0
2020-03-04T22:49:00-05:00,75.08,10.94,738.54,-5.35,0.65,134.48,0
2020-03-04T22:50:00-05:00,75.44,10.96,739.68,-6.08,0.45,85.1,0
2020-03-04T22:51:00-05:00,75.62,10.89,739.41,-5.35,0.58,68.97,0
2020-03-04T22:52:00-05:00,75.45,10.84,739.78,-4.02,0.6,101.34,0
2020-03-04T22:53:00-05:00,75.44,10.84,738.24,-5.49,0.33,133.48,0
2020-03-04T22:54:00-05:00,75.77,10.82,738.74,-4.91,0.46,90.87,0
2020-03-04T22:55:00-05:00,75.68,10.77,738.01,-5.49,0.69,63.84,0
2020-03-04T22:56:00-05:00,75.67,10.76,739.58,-5.93,0.62,88.05,0
2020-03-04T22:57:00-05:00,75.94,10.75,738.81,-3.88,0.71,107.02,0
2020-03-04T22:58:00-05:00,76.42,10.7,739.68,-5.64,0.64,124.3,0
2020-03-04T22:59:00-05:00,76.59,10.68,739.55,-5.79,0.98,92.41,0
2020-03-04T23:00:00-05:00,76.75,10.6,739.15,-4.76,0.49,82.93,0
2020-03-04T23:01:00-05:00,76.79,10.56,739.15,-5.49,0.64,107.87,0
2020-03-04T23:02:00-05:00,77.12,10.54,739.01,-5.93,0.78,111.41,0
2020-03-04T23:03:00-05:00,77.18,10.52,738.98,-4.02,0.78,115.12,0
2020-03-04T23:04:00-05:00,77.06,10.5,738.78,-5.79,0.55,108.98,0
2020-03-04T23:05:00-05:00,76.89,10.5,739.15,-5.93,0.87,91.5,0
2020-03-04T23:06:00-05:00,77.31,10.48,739.05,-5.49,0.59,100.26,0
2020-03-04T23:07:00-05:00,77.19,10.47,738.58,-5.05,1.08,80.93,0
2020-03-04T23:08:00-05:00,77.25,10.47,739.51,-5.64,0.71,65.46,0
2020-03-04T23:09:00-05:00,77.67,10.46,738.88,-5.93,0.61,39.85,0
2020-03-04T23:10:00-05:00,77.78,10.41,738.51,-2.99,0.64,124.56,0
2020-03-04T23:11:00-05:00,77.25,10.38,739.48,-3.44,0.66,146.04,0
2020-03-04T23:12:00-05:00,77.25,10.38,738.98,-4.32,0.62,121.58,0
2020-03-04T23:13:00-05:00,76.96,10.38,739.48,-4.02,0.3,13.01,0
2020-03-04T23:14:00-05:00,77.41,10.39,738.08,-5.35,0.79,102.06,0
2020-03-04T23:15:00-05:00,77.33,10.39,739.65,-3.14,0.93,75.15,0
2020-03-04T23:16:00-05:00,76.75,10.41,738.24,-3.58,0.64,176.39,0
2020-03-04T23:17:00-05:00,76.18,10.48,739.45,-4.91,0.37,68.53,0
2020-03-04T23:18:00-05:00,76.05,10.55,738.51,-2.41,0.65,40.24,0
2020-03-04T23:19:00-05:00,76.22,10.59,739.28,-4.76,0.64,139.3,0
2020-03-04T23:20:00-05:00,75.88,10.58,739.11,-3.88,0.8,108.66,0
2020-03-04T23:21:00-05:00,76.15,10.6,738.95,-4.76,0.88,104.1,0
2020-03-04T23:22:00-05:00,76.31,10.56,739.62,-3.44,0.61,135.22,0
2020-03-04T23:23:00-05:00,76.18,10.56,739.55,-3.58,0.63,133.22,0
2020-03-04T23:24:00-05:00,76.48,10.55,739.18,-4.32,0.89,160.16,0
2020-03-04T23:25:00-05:00,75.88,10.53,738.31,-4.91,0.62,70.64,0
2020-03-04T23:26:00-05:00,76.04,10.54,738.48,-2.41,0.78,74.42,0
2020-03-04T23:27:00-05:00,76.18,10.57,739.31,-5.2,0.87,77.05,0
2020-03-04T23:28:00-05:00,76.69,10.56,738.14,-2.55,1.09,44.16,0
2020-03-04T23:29:00-05:00,77.41,10.52,738.58,-5.35,2.43,22.53,0
2020-03-04T23:30:00-05:00,76.47,10.67,738.81,-4.17,0.96,84.21,0
2020-03-04T23:31:00-05:00,76.14,10.74,739.72,-3.88,0.9,106.56,0
2020-03-04T23:32:00-05:00,75.42,10.81,738.18,-3.88,0.94,15.76,0
2020-03-04T23:33:00-05:00,74.97,10.94,739.18,-3.29,0.67,40.19,0
2020-03-04T23:34:00-05:00,74.98,10.98,738.28,-4.46,1.22,154.22,0
2020-03-04T23:35:00-05:00,74.42,11.05,738.88,-2.26,3.08,42.15,0
2020-03-04T23:36:00-05:00,74.06,11.12,738.61,-2.11,2.04,141.24,0
2020-03-04T23:37:00-05:00,73.93,11.16,739.28,-3.73,0.95,57.27,0
2020-03-04T23:38:00-05:00,73.73,11.19,739.25,-4.46,1.51,123.37,0
2020-03-04T23:39:00-05:00,73.91,11.21,739.25,-5.05,3.54,46.96,0
2020-03-04T23:40:00-05:00,73.4,11.28,738.74,-4.46,1.22,55.12,0
2020-03-04T23:41:00-05:00,73,11.3,737.54,-4.32,3.56,22.82,0
2020-03-04T23:42:00-05:00,72.55,11.36,738.95,-4.61,2.83,68.96,0
2020-03-04T23:43:00-05:00,72.27,11.4,738.51,-3.73,0.59,51.1,0
2020-03-04T23:44:00-05:00,72.19,11.42,738.74,-3.58,0.6,50.38,0
2020-03-04T23:45:00-05:00,72.7,11.4,738.01,-5.2,0.69,345.49,0
2020-03-04T23:46:00-05:00,72.98,11.36,739.18,-4.02,2.02,47.61,0
2020-03-04T23:47:00-05:00,73.01,11.35,739.51,-2.99,1.43,69.28,0
2020-03-04T23:48:00-05:00,73.4,11.31,738.95,-3.88,0.78,66.4,0
2020-03-04T23:49:00-05:00,73.16,11.29,737.94,-4.61,1.83,40.72,0
2020-03-04T23:50:00-05:00,73.09,11.3,738.68,-6.23,2.74,46.75,0
2020-03-04T23:51:00-05:00,72.91,11.34,738.91,-5.49,1.05,67.83,0
2020-03-04T23:52:00-05:00,72.48,11.37,738.28,-3.44,2.88,57.51,0
2020-03-04T23:53:00-05:00,72.15,11.42,739.01,-3.73,3.4,42.94,0
2020-03-04T23:54:00-05:00,72.26,11.42,739.25,-3.58,2.84,39.76,0
2020-03-04T23:55:00-05:00,71.93,11.43,738.01,-3.29,2.62,27.41,0
2020-03-04T23:56:00-05:00,71.79,11.43,738.85,-3.73,0.9,17.49,0
2020-03-04T23:57:00-05:00,72.44,11.41,738.21,-4.91,0.78,90.7,0
2020-03-04T23:58:00-05:00,72.29,11.36,738.11,-6.23,2.2,86.45,0
2020-03-04T23:59:00-05:00,71.99,11.36,738.48,-4.02,2.41,63.94,0
